1.161.133.151
2.24.246.103
2.29.67.129
2.47.197.48
2.56.10.29
2.56.96.214
2.56.98.121
2.56.98.134
2.56.206.124
2.57.122.58
2.57.122.179
2.57.122.215
2.57.122.246
2.57.205.12
2.58.21.105
2.58.52.163
2.58.56.43
2.58.56.90
2.58.56.220
2.58.56.248
2.58.95.31
2.58.95.35
2.58.95.38
2.58.95.56
2.58.95.71
2.59.254.204
2.70.110.226
2.138.221.182
2.204.126.193
2.204.220.191
2.205.197.178
2.205.231.73
2.226.135.138
3.20.179.249
3.20.235.11
3.67.194.114
3.70.187.87
3.109.74.82
3.121.84.112
3.121.167.65
3.129.234.3
3.145.141.110
3.224.74.192
3.225.115.238
5.1.56.52
5.2.67.226
5.2.70.140
5.2.78.126
5.2.79.179
5.2.79.190
5.8.33.34
5.9.14.25
5.9.14.30
5.9.24.169
5.9.56.249
5.9.59.103
5.9.66.94
5.9.80.252
5.9.121.207
5.9.122.185
5.9.122.206
5.9.137.167
5.9.156.17
5.9.240.66
5.9.240.67
5.9.240.68
5.9.240.69
5.9.240.70
5.9.251.179
5.12.40.248
5.22.159.135
5.34.176.183
5.34.176.184
5.35.103.36
5.35.103.88
5.35.103.92
5.35.103.107
5.39.81.102
5.39.86.203
5.39.185.164
5.39.216.134
5.42.66.6
5.42.78.159
5.42.80.232
5.42.80.233
5.42.80.234
5.42.80.235
5.44.101.19
5.45.69.38
5.45.98.162
5.45.98.188
5.45.102.93
5.45.104.89
5.45.104.116
5.45.104.176
5.45.105.12
5.45.111.149
5.56.198.130
5.56.216.42
5.57.240.135
5.61.51.143
5.75.165.11
5.75.177.223
5.75.230.210
5.75.249.160
5.78.45.39
5.78.67.126
5.78.71.16
5.78.86.16
5.79.66.19
5.83.182.140
5.104.75.141
5.104.87.41
5.104.111.208
5.135.83.4
5.135.162.49
5.135.177.217
5.135.182.131
5.135.199.11
5.161.51.85
5.161.60.61
5.161.76.226
5.161.84.59
5.161.112.13
5.161.127.217
5.161.187.129
5.161.192.227
5.161.215.230
5.172.132.104
5.180.253.35
5.181.51.51
5.181.51.52
5.181.51.57
5.181.80.63
5.181.80.101
5.181.80.107
5.181.80.131
5.181.80.169
5.181.80.181
5.181.134.99
5.181.158.12
5.181.158.49
5.181.158.232
5.182.86.212
5.189.134.99
5.189.155.39
5.189.181.61
5.189.253.159
5.196.4.91
5.196.8.113
5.196.29.140
5.196.64.99
5.196.70.226
5.196.71.24
5.196.73.12
5.196.95.16
5.196.95.34
5.199.162.73
5.199.162.99
5.199.162.114
5.199.162.155
5.224.252.235
5.230.56.76
5.230.119.38
5.250.179.163
5.250.184.43
5.250.186.160
5.250.191.234
5.252.74.238
5.252.154.17
5.252.178.224
5.252.224.115
5.252.225.194
5.252.226.201
5.252.227.63
5.253.84.137
5.253.84.142
5.253.84.166
5.253.84.179
5.253.176.99
5.254.118.189
5.254.118.191
5.254.118.192
5.255.88.102
5.255.96.218
5.255.97.50
5.255.97.221
5.255.98.23
5.255.98.81
5.255.98.121
5.255.98.151
5.255.98.186
5.255.98.198
5.255.99.5
5.255.99.16
5.255.99.108
5.255.99.124
5.255.99.147
5.255.99.189
5.255.100.26
5.255.100.151
5.255.100.219
5.255.100.224
5.255.101.10
5.255.101.24
5.255.101.79
5.255.101.131
5.255.102.20
5.255.102.43
5.255.103.190
5.255.103.235
5.255.104.202
5.255.104.239
5.255.105.181
5.255.108.59
5.255.109.75
5.255.109.214
5.255.110.89
5.255.111.64
5.255.111.104
5.255.111.134
5.255.112.5
5.255.112.208
5.255.114.171
5.255.115.42
5.255.115.58
5.255.117.56
5.255.118.244
5.255.119.29
5.255.119.87
5.255.120.20
5.255.123.164
5.255.124.150
5.255.125.41
5.255.125.196
5.255.127.36
5.255.127.222
8.42.76.68
13.39.253.201
13.48.17.31
13.124.18.130
13.211.32.165
13.212.244.10
14.9.101.224
14.137.92.39
15.204.11.248
15.204.11.249
15.204.14.102
15.204.57.248
15.204.87.223
15.204.140.9
15.204.141.10
15.204.141.14
15.204.141.95
15.204.142.37
15.204.143.192
15.204.166.155
15.204.166.245
15.204.183.156
15.204.199.7
15.204.220.109
15.204.226.3
15.204.227.206
15.204.227.208
15.204.234.61
15.204.235.110
15.204.245.166
15.235.130.1
15.235.149.126
16.62.79.215
18.18.82.17
18.18.82.18
18.18.82.19
18.18.82.30
18.130.146.107
18.143.233.84
18.219.59.33
18.220.20.115
18.224.222.29
20.110.177.43
20.160.225.224
20.214.181.125
20.214.184.59
20.224.145.181
23.26.133.239
23.29.119.122
23.29.124.34
23.81.44.113
23.82.136.14
23.82.136.232
23.82.137.85
23.82.137.99
23.83.91.155
23.83.135.203
23.83.135.225
23.88.44.26
23.88.46.11
23.88.110.231
23.92.19.230
23.93.164.234
23.94.36.142
23.94.60.158
23.94.85.226
23.94.85.227
23.94.85.228
23.94.85.229
23.94.85.230
23.94.133.162
23.94.166.66
23.94.211.25
23.94.220.202
23.94.239.103
23.105.163.117
23.105.172.1
23.105.174.243
23.106.120.42
23.108.51.104
23.108.55.71
23.111.143.202
23.111.144.82
23.111.179.34
23.111.179.98
23.111.189.202
23.123.100.108
23.126.9.217
23.130.136.139
23.134.136.5
23.135.248.225
23.135.248.226
23.135.248.227
23.135.248.228
23.135.248.229
23.135.248.230
23.135.248.231
23.135.248.232
23.135.248.233
23.135.248.234
23.137.248.69
23.137.248.100
23.137.248.139
23.137.248.147
23.137.248.152
23.137.248.159
23.137.249.8
23.137.249.39
23.137.249.113
23.137.249.127
23.137.250.34
23.137.250.83
23.137.253.9
23.137.253.26
23.137.253.27
23.137.253.77
23.137.253.108
23.137.253.109
23.137.253.110
23.137.254.14
23.141.40.7
23.142.248.63
23.151.232.27
23.152.24.77
23.154.177.2
23.154.177.3
23.154.177.4
23.154.177.5
23.154.177.6
23.154.177.7
23.154.177.8
23.154.177.9
23.154.177.10
23.154.177.11
23.154.177.12
23.154.177.13
23.154.177.14
23.154.177.15
23.154.177.16
23.154.177.17
23.154.177.18
23.154.177.19
23.154.177.20
23.154.177.21
23.154.177.22
23.154.177.23
23.154.177.24
23.154.177.25
23.155.8.104
23.155.24.6
23.156.104.141
23.157.136.251
23.157.136.252
23.157.136.253
23.160.192.240
23.162.56.22
23.162.136.92
23.162.136.129
23.162.136.141
23.162.136.175
23.162.136.250
23.165.24.4
23.165.104.124
23.166.120.35
23.184.48.94
23.184.48.131
23.184.48.133
23.184.48.221
23.184.48.222
23.184.48.223
23.184.48.224
23.227.168.106
23.227.186.186
23.227.186.194
23.236.122.62
23.236.143.34
23.237.74.90
23.237.74.106
23.237.96.90
23.239.5.247
23.239.113.101
23.247.50.183
23.253.203.194
24.16.219.253
24.18.154.212
24.49.115.19
24.64.81.24
24.99.81.29
24.132.73.154
24.150.51.59
24.151.1.51
24.151.170.153
24.154.181.201
24.190.89.192
24.191.62.109
24.199.74.126
24.202.11.237
24.212.137.85
24.246.25.51
24.253.232.195
27.33.243.119
27.125.159.139
27.255.75.198
31.11.200.104
31.13.195.248
31.14.252.98
31.17.39.221
31.17.177.40
31.19.10.23
31.21.242.226
31.38.215.187
31.42.177.60
31.42.185.134
31.42.186.165
31.43.153.208
31.129.22.65
31.131.2.17
31.131.2.90
31.133.0.141
31.133.1.108
31.164.215.246
31.164.215.247
31.164.230.135
31.170.22.199
31.171.154.162
31.171.154.165
31.171.154.173
31.187.193.21
31.192.107.132
31.192.108.58
31.207.89.76
31.208.66.195
31.214.144.175
31.220.74.30
31.220.74.133
31.220.81.242
31.220.85.162
31.220.87.46
31.220.93.201
31.220.98.139
34.126.141.113
35.0.127.52
35.131.69.148
35.133.154.83
35.134.88.92
35.182.71.209
35.240.241.135
37.1.201.144
37.1.204.243
37.8.241.200
37.9.231.195
37.26.77.247
37.27.2.141
37.27.8.223
37.27.18.214
37.27.25.133
37.27.30.181
37.27.42.112
37.27.42.145
37.27.58.206
37.27.67.176
37.27.70.253
37.27.106.25
37.27.106.75
37.46.208.113
37.48.70.156
37.48.90.84
37.48.120.47
37.48.120.196
37.59.29.77
37.60.243.121
37.75.166.126
37.97.2.201
37.97.185.116
37.114.35.73
37.114.53.197
37.114.53.201
37.114.57.182
37.117.190.108
37.120.144.222
37.120.162.222
37.120.165.175
37.120.166.23
37.120.168.19
37.120.168.74
37.120.171.188
37.120.171.230
37.120.174.249
37.120.178.238
37.120.183.47
37.120.184.36
37.120.185.171
37.120.186.122
37.120.186.229
37.120.187.104
37.120.188.64
37.120.188.156
37.120.190.6
37.120.194.126
37.120.239.59
37.134.130.46
37.135.65.17
37.138.39.37
37.138.224.245
37.138.231.211
37.143.61.132
37.152.231.8
37.157.197.143
37.187.2.229
37.187.4.174
37.187.5.192
37.187.23.232
37.187.96.84
37.187.98.185
37.187.103.54
37.187.122.8
37.187.122.101
37.187.147.119
37.200.99.251
37.201.45.190
37.205.8.191
37.205.9.131
37.218.242.26
37.218.242.84
37.218.245.79
37.221.66.4
37.221.192.121
37.221.192.175
37.221.193.44
37.221.195.23
37.221.195.103
37.221.196.71
37.221.197.245
37.221.212.147
37.228.129.5
37.228.129.29
37.228.129.63
37.228.129.128
37.228.129.163
37.228.129.164
37.230.128.62
37.235.48.29
37.235.48.247
37.235.49.138
37.252.187.14
37.252.189.17
37.252.190.176
37.252.191.4
37.252.191.41
37.252.254.33
37.252.255.135
38.6.224.183
38.15.129.34
38.15.129.35
38.15.129.36
38.15.129.37
38.15.129.38
38.22.136.215
38.41.218.54
38.42.21.237
38.45.66.235
38.45.67.56
38.47.53.157
38.47.180.50
38.47.180.57
38.47.180.58
38.52.255.238
38.68.135.5
38.97.116.244
38.102.84.24
38.102.84.190
38.102.84.204
38.103.195.2
38.108.119.208
38.132.178.154
38.145.211.218
38.147.122.250
38.147.122.251
38.147.122.252
38.147.122.253
38.147.122.254
38.154.239.242
38.154.239.250
38.154.240.58
38.175.192.7
38.175.192.191
38.175.196.228
38.175.197.42
38.175.197.45
38.175.201.73
38.175.201.167
38.175.201.226
38.180.16.68
38.180.23.25
38.180.88.241
38.242.203.135
38.242.234.138
38.242.234.161
38.242.238.14
38.242.238.206
38.242.240.145
38.242.254.131
40.130.207.245
43.201.99.6
43.228.174.250
43.252.37.14
44.199.32.169
44.242.33.87
45.8.22.207
45.8.144.90
45.9.60.140
45.9.148.219
45.9.150.103
45.9.150.130
45.9.168.191
45.10.24.189
45.10.154.155
45.12.3.80
45.13.104.185
45.14.233.151
45.14.233.190
45.14.233.193
45.14.233.204
45.14.233.205
45.14.233.209
45.14.233.210
45.14.233.213
45.15.16.164
45.15.157.99
45.15.157.177
45.22.243.194
45.32.4.66
45.32.66.7
45.32.80.44
45.32.81.8
45.32.129.172
45.33.2.253
45.33.55.238
45.33.57.83
45.33.114.120
45.33.120.130
45.33.124.98
45.41.204.203
45.45.239.188
45.55.47.232
45.56.90.176
45.56.102.176
45.61.184.47
45.61.185.172
45.61.185.194
45.61.187.139
45.61.187.249
45.61.188.195
45.63.15.42
45.66.35.10
45.66.35.11
45.66.35.20
45.66.35.21
45.66.35.35
45.66.43.3
45.67.35.38
45.67.219.13
45.72.179.134
45.73.2.211
45.76.2.145
45.76.48.130
45.76.86.86
45.76.143.29
45.77.112.107
45.77.136.58
45.77.149.17
45.77.173.141
45.79.50.161
45.79.70.219
45.79.76.174
45.79.95.244
45.79.108.130
45.79.114.66
45.79.144.222
45.79.159.52
45.79.163.116
45.79.177.21
45.79.181.228
45.80.158.27
45.80.158.205
45.80.168.22
45.80.171.18
45.80.171.95
45.80.171.211
45.80.208.21
45.80.208.110
45.80.208.123
45.80.208.225
45.80.210.20
45.82.122.254
45.82.167.158
45.82.167.175
45.83.5.242
45.83.104.137
45.83.105.223
45.83.106.19
45.83.106.225
45.83.234.114
45.85.88.117
45.85.117.23
45.85.117.38
45.85.218.62
45.86.86.158
45.86.86.165
45.86.86.231
45.86.125.102
45.86.209.201
45.86.228.153
45.88.223.151
45.89.54.11
45.89.55.34
45.89.55.108
45.89.127.221
45.90.4.235
45.90.97.101
45.91.92.40
45.91.101.227
45.92.1.74
45.92.33.62
45.92.33.74
45.92.70.100
45.92.70.126
45.92.238.246
45.93.9.212
45.93.95.210
45.93.110.12
45.93.250.15
45.94.31.54
45.94.31.180
45.95.11.41
45.95.169.164
45.95.169.184
45.95.169.223
45.95.169.224
45.95.169.225
45.95.169.226
45.95.169.228
45.95.169.229
45.95.169.230
45.95.169.255
45.95.172.23
45.95.202.48
45.124.53.132
45.125.65.45
45.125.65.112
45.125.166.58
45.128.133.206
45.128.153.6
45.128.153.69
45.128.153.72
45.128.153.74
45.128.225.77
45.128.232.69
45.128.232.77
45.128.232.151
45.128.232.158
45.129.182.225
45.129.199.211
45.131.65.51
45.131.138.227
45.132.96.232
45.132.245.7
45.132.246.38
45.132.246.245
45.132.247.155
45.134.39.88
45.134.39.89
45.134.173.197
45.134.225.36
45.134.226.157
45.135.132.20
45.135.163.24
45.136.28.24
45.136.29.221
45.136.30.7
45.136.31.178
45.137.100.160
45.137.118.70
45.138.16.42
45.138.16.76
45.138.16.93
45.138.16.107
45.138.16.113
45.138.16.142
45.138.16.203
45.138.16.222
45.138.16.230
45.138.16.240
45.138.16.249
45.138.53.239
45.139.163.63
45.139.163.75
45.140.143.145
45.140.185.79
45.141.0.102
45.141.57.69
45.141.153.214
45.141.157.50
45.141.202.164
45.141.215.21
45.141.215.56
45.141.215.61
45.141.215.62
45.141.215.63
45.141.215.80
45.141.215.81
45.141.215.88
45.141.215.90
45.141.215.95
45.141.215.97
45.141.215.110
45.141.215.111
45.141.215.113
45.141.215.114
45.141.215.167
45.141.215.169
45.141.215.170
45.142.100.30
45.142.166.228
45.142.176.32
45.142.176.96
45.142.176.108
45.142.177.89
45.142.214.40
45.142.232.203
45.144.240.19
45.144.240.191
45.145.41.146
45.145.166.104
45.147.7.119
45.148.120.162
45.148.121.112
45.148.122.114
45.150.108.105
45.150.108.116
45.151.167.10
45.151.167.11
45.151.167.12
45.151.167.13
45.154.28.70
45.157.11.138
45.158.77.29
45.158.77.241
45.159.250.25
45.166.215.0
45.239.244.220
45.248.50.64
45.249.101.87
46.4.32.184
46.4.34.242
46.4.55.177
46.4.57.75
46.4.66.178
46.4.66.188
46.4.78.3
46.4.92.139
46.4.96.24
46.4.103.29
46.4.183.104
46.4.233.104
46.5.43.161
46.7.38.176
46.10.204.19
46.10.211.74
46.17.63.214
46.17.96.130
46.20.35.112
46.20.35.116
46.22.165.111
46.22.212.230
46.23.72.81
46.23.92.80
46.23.94.167
46.23.108.248
46.28.109.231
46.29.163.184
46.29.166.234
46.29.234.27
46.29.250.27
46.36.40.38
46.38.232.203
46.38.236.250
46.38.237.49
46.38.237.221
46.38.242.125
46.38.242.228
46.38.248.163
46.38.251.59
46.38.253.161
46.38.254.168
46.38.255.10
46.38.255.27
46.41.148.75
46.41.150.10
46.41.150.103
46.44.183.123
46.63.120.248
46.101.165.197
46.101.178.190
46.105.29.246
46.105.91.78
46.117.122.149
46.128.226.217
46.142.4.202
46.142.66.199
46.148.21.35
46.148.21.67
46.148.26.44
46.163.76.170
46.165.221.207
46.165.242.86
46.165.243.36
46.165.252.48
46.165.253.196
46.165.254.40
46.166.139.111
46.166.165.116
46.182.21.248
46.183.217.105
46.223.45.59
46.223.240.105
46.226.104.31
46.226.105.119
46.226.105.136
46.226.105.163
46.226.106.182
46.226.107.206
46.226.107.215
46.226.109.31
46.226.111.65
46.226.164.14
46.226.166.145
46.228.199.128
46.229.8.87
46.229.55.118
46.231.93.216
46.231.240.77
46.232.248.143
46.232.250.51
46.232.250.163
46.232.251.46
46.232.251.191
46.234.47.105
46.244.233.198
46.246.34.53
46.246.44.53
46.246.126.62
46.248.187.90
46.249.37.109
46.249.49.177
46.252.5.137
46.254.19.113
46.254.98.38
47.62.218.238
47.145.30.165
47.146.69.138
47.150.48.104
47.161.62.20
47.161.177.179
47.161.179.59
47.181.193.168
47.188.90.202
47.196.11.230
47.221.133.100
47.243.74.136
47.243.103.140
47.245.106.151
49.12.5.31
49.12.80.147
49.12.93.240
49.12.224.203
49.12.230.234
49.13.4.123
49.13.10.149
49.13.28.37
49.13.54.48
49.13.76.37
49.13.84.173
49.13.95.189
49.13.133.177
49.13.210.40
49.49.10.203
49.150.88.147
49.177.125.155
49.190.47.144
49.205.197.139
49.212.166.38
50.3.182.133
50.3.182.145
50.3.182.156
50.7.14.36
50.7.14.40
50.7.115.67
50.7.124.35
50.7.154.218
50.7.178.34
50.21.186.234
50.34.122.155
50.53.78.7
50.53.82.97
50.64.108.115
50.65.178.92
50.71.206.206
50.72.129.50
50.83.36.229
50.99.155.46
50.115.171.17
50.116.35.204
50.116.39.253
50.116.51.101
50.118.225.160
50.118.225.161
50.118.225.183
50.120.64.81
50.225.143.42
50.230.231.84
50.230.231.85
51.15.1.93
51.15.4.202
51.15.5.16
51.15.11.154
51.15.36.183
51.15.37.100
51.15.39.65
51.15.40.38
51.15.44.157
51.15.44.251
51.15.49.143
51.15.50.36
51.15.52.16
51.15.54.117
51.15.59.15
51.15.75.120
51.15.76.56
51.15.79.105
51.15.89.218
51.15.95.231
51.15.96.2
51.15.108.12
51.15.116.168
51.15.142.0
51.15.150.228
51.15.178.93
51.15.185.201
51.15.219.22
51.15.232.19
51.15.242.244
51.15.243.22
51.15.246.170
51.15.249.160
51.38.54.48
51.38.65.160
51.38.81.135
51.38.110.234
51.38.113.118
51.38.113.254
51.38.235.40
51.68.45.22
51.68.136.44
51.68.139.43
51.68.152.89
51.68.155.201
51.68.185.82
51.68.197.220
51.68.199.241
51.68.204.139
51.68.231.5
51.75.7.69
51.75.32.31
51.75.64.23
51.75.70.246
51.75.71.108
51.75.73.193
51.75.129.204
51.75.153.22
51.75.171.136
51.75.206.12
51.77.67.232
51.77.71.247
51.77.90.246
51.77.202.41
51.77.210.24
51.77.212.124
51.77.245.88
51.77.245.242
51.79.65.244
51.79.67.109
51.79.71.20
51.79.156.173
51.79.221.8
51.81.56.74
51.81.56.91
51.81.56.136
51.81.56.228
51.81.56.229
51.81.57.7
51.81.57.125
51.81.72.213
51.81.93.37
51.81.93.39
51.81.93.108
51.81.93.109
51.81.93.145
51.81.93.162
51.81.147.82
51.81.155.81
51.81.155.228
51.81.155.229
51.81.160.184
51.81.201.207
51.81.208.163
51.81.208.164
51.81.208.217
51.81.209.9
51.81.209.101
51.81.209.115
51.81.222.62
51.81.242.11
51.81.245.149
51.81.254.14
51.81.254.15
51.83.97.227
51.83.132.103
51.83.237.59
51.89.2.63
51.89.17.143
51.89.40.51
51.89.81.247
51.89.106.29
51.89.153.112
51.89.165.5
51.89.200.109
51.89.242.29
51.89.242.31
51.91.18.151
51.91.58.34
51.91.99.150
51.148.150.203
51.154.39.70
51.158.66.139
51.158.115.62
51.158.116.203
51.158.146.152
51.158.147.234
51.158.154.112
51.158.165.51
51.158.188.145
51.158.201.235
51.158.238.104
51.159.34.131
51.159.59.187
51.159.64.78
51.159.153.241
51.159.171.180
51.159.173.112
51.159.176.184
51.159.179.214
51.159.181.146
51.159.186.85
51.159.195.41
51.159.211.57
51.161.35.113
51.161.50.211
51.161.163.150
51.161.202.0
51.161.202.9
51.161.203.115
51.174.128.108
51.175.94.207
51.175.122.36
51.178.45.216
51.178.82.201
51.178.131.200
51.178.140.180
51.195.41.1
51.195.41.230
51.195.43.58
51.195.103.239
51.195.116.239
51.195.121.102
51.195.152.241
51.195.166.174
51.210.103.252
51.210.111.103
51.210.148.166
51.210.181.42
51.210.181.252
51.222.15.200
51.222.24.62
51.222.31.141
51.222.84.46
51.222.110.143
51.222.140.58
51.222.142.67
51.222.207.61
51.254.96.208
52.8.68.153
52.15.137.0
52.47.91.150
52.52.230.13
52.205.15.239
52.214.94.163
54.36.99.69
54.36.101.21
54.36.108.162
54.36.173.175
54.36.188.212
54.36.191.46
54.36.205.38
54.36.208.117
54.37.39.31
54.37.139.118
54.37.180.95
54.37.229.22
54.38.33.66
54.38.72.170
54.38.184.55
54.38.215.74
54.38.241.3
54.39.68.9
54.39.73.124
54.39.118.29
54.39.234.91
54.93.77.70
54.213.206.148
54.218.255.56
54.224.79.94
54.250.156.224
57.128.101.155
57.128.169.164
57.128.174.82
57.128.195.50
57.129.16.194
57.129.20.162
57.129.32.225
58.9.110.19
58.107.82.46
58.179.75.194
58.185.69.242
58.185.69.245
59.29.233.133
59.187.250.174
60.51.107.150
60.67.211.123
60.241.48.194
61.4.102.51
62.27.226.148
62.27.248.78
62.27.252.173
62.37.51.198
62.38.144.238
62.47.147.139
62.63.202.214
62.63.203.34
62.63.203.157
62.63.244.28
62.67.28.2
62.67.28.50
62.67.28.110
62.72.44.187
62.72.46.150
62.72.82.232
62.101.228.30
62.102.148.185
62.112.9.92
62.112.10.154
62.113.211.114
62.113.214.74
62.133.45.2
62.141.36.150
62.141.37.218
62.141.48.175
62.141.48.177
62.144.49.148
62.144.56.71
62.144.238.51
62.149.2.188
62.149.23.133
62.151.180.251
62.158.52.115
62.168.3.212
62.169.19.54
62.169.21.101
62.171.137.169
62.171.142.3
62.171.148.255
62.182.83.179
62.182.84.241
62.194.43.186
62.202.20.22
62.210.97.21
62.210.99.238
62.210.105.46
62.210.116.61
62.210.123.24
62.210.125.130
62.210.127.37
62.210.205.228
62.210.231.115
62.216.85.210
62.224.245.236
62.250.193.5
63.141.233.118
63.141.234.37
63.141.234.38
63.141.251.170
63.227.116.162
63.250.63.173
64.4.175.33
64.5.123.66
64.7.198.199
64.7.199.234
64.24.123.23
64.31.10.6
64.31.22.133
64.31.22.195
64.31.22.201
64.31.53.96
64.31.55.211
64.31.55.212
64.31.55.213
64.42.176.50
64.44.51.37
64.52.108.69
64.74.160.232
64.98.115.32
64.98.123.11
64.135.129.118
64.176.4.35
64.176.10.122
64.176.10.216
64.176.210.130
64.176.217.212
64.223.149.100
64.227.115.78
64.227.134.60
64.227.172.91
64.233.157.199
64.251.255.9
65.20.73.136
65.20.74.176
65.20.112.134
65.21.0.217
65.21.1.92
65.21.1.225
65.21.49.9
65.21.50.48
65.21.54.19
65.21.85.98
65.21.91.58
65.21.94.13
65.21.106.169
65.21.110.38
65.21.115.34
65.21.115.35
65.21.115.36
65.21.115.37
65.21.115.38
65.21.163.5
65.21.163.6
65.21.164.50
65.21.164.52
65.21.164.53
65.21.180.151
65.21.185.116
65.21.195.87
65.21.246.132
65.21.251.26
65.24.242.46
65.38.121.165
65.39.97.13
65.43.35.249
65.49.20.10
65.49.20.11
65.49.20.12
65.108.3.114
65.108.10.141
65.108.58.113
65.108.69.184
65.108.74.41
65.108.77.19
65.108.82.81
65.108.89.113
65.108.95.128
65.108.108.198
65.108.129.218
65.108.136.183
65.108.136.189
65.108.136.190
65.108.195.151
65.108.198.216
65.108.205.51
65.108.215.202
65.108.217.34
65.108.222.42
65.108.231.17
65.108.233.166
65.109.0.210
65.109.13.155
65.109.26.84
65.109.26.85
65.109.26.86
65.109.26.89
65.109.26.110
65.109.30.253
65.109.65.38
65.109.65.57
65.109.65.59
65.109.67.140
65.109.67.160
65.109.67.182
65.109.84.122
65.109.93.180
65.109.98.156
65.109.109.232
65.109.115.38
65.109.120.23
65.109.161.207
65.109.165.33
65.109.225.81
65.109.233.53
65.128.195.126
66.11.123.220
66.23.193.199
66.29.156.107
66.29.156.109
66.29.156.127
66.42.70.233
66.42.99.190
66.42.100.169
66.70.211.20
66.70.227.44
66.85.128.218
66.85.236.166
66.103.204.121
66.111.2.16
66.111.2.20
66.111.2.131
66.135.28.97
66.146.193.33
66.165.227.138
66.165.241.228
66.165.241.230
66.169.194.135
66.175.235.244
66.179.251.201
66.183.173.29
66.187.4.132
66.206.0.82
66.206.1.202
66.220.242.222
67.81.164.65
67.159.26.2
67.170.248.37
67.186.128.142
67.205.139.175
67.205.165.67
67.205.180.87
67.207.73.55
67.213.221.16
67.215.31.170
67.219.107.200
67.219.109.141
68.8.241.30
68.41.137.6
68.67.32.31
68.67.32.32
68.67.32.33
68.67.32.34
68.71.25.194
68.97.244.129
68.99.156.190
68.134.176.234
68.148.174.117
68.171.179.124
68.183.156.93
68.183.163.215
68.183.182.89
68.199.156.172
68.225.207.60
68.235.153.57
68.253.253.66
69.30.239.126
69.42.221.41
69.42.221.142
69.46.9.122
69.46.10.138
69.120.194.133
69.147.200.219
69.164.205.192
69.164.207.71
69.164.210.140
69.164.211.18
69.166.182.51
69.174.143.74
69.197.160.206
69.209.101.212
69.237.207.60
70.19.40.203
70.32.0.100
70.34.222.94
70.34.244.156
70.34.250.156
70.36.60.242
70.59.2.163
70.63.170.86
70.81.244.103
70.134.248.71
70.175.76.239
70.235.126.181
71.10.60.41
71.19.144.65
71.19.144.106
71.19.146.15
71.19.148.104
71.19.149.21
71.19.155.121
71.19.157.127
71.28.41.142
71.34.86.80
71.42.125.218
71.60.146.138
71.79.166.226
71.84.116.82
71.105.213.33
71.114.77.56
71.114.106.74
71.182.176.80
71.212.2.101
71.235.16.49
71.237.112.249
71.244.170.31
72.2.129.156
72.5.43.211
72.14.179.10
72.39.230.135
72.49.24.238
72.73.225.221
72.74.248.53
72.83.250.130
72.84.244.6
72.89.22.104
72.89.51.17
72.106.7.250
72.167.47.69
72.211.49.235
72.235.36.58
73.13.2.99
73.18.130.34
73.54.200.51
73.56.39.116
73.60.21.174
73.88.31.107
73.92.207.232
73.95.21.31
73.95.217.197
73.110.236.34
73.117.132.138
73.136.66.7
73.140.189.95
73.157.43.236
73.174.238.50
73.202.13.183
73.206.249.95
73.235.38.188
73.238.170.240
74.36.219.241
74.48.50.60
74.48.220.106
74.50.98.172
74.50.99.117
74.63.194.162
74.63.194.176
74.63.223.173
74.63.247.219
74.63.247.232
74.82.47.194
74.91.21.2
74.91.26.170
74.91.27.30
74.105.21.221
74.105.68.233
74.106.232.4
74.116.186.120
74.118.77.34
74.123.97.10
74.123.97.26
74.123.98.10
74.123.98.18
74.207.248.172
74.207.253.212
74.208.27.90
74.208.29.99
74.208.45.216
74.208.60.50
74.208.88.184
74.208.100.16
74.208.104.100
74.208.123.15
74.208.142.142
74.208.163.187
74.208.182.78
74.208.189.124
74.208.201.163
74.208.209.29
74.215.154.5
75.11.25.4
75.28.165.140
75.68.155.99
75.75.102.102
75.87.175.126
75.143.209.92
75.157.141.153
75.176.43.62
75.223.49.55
76.10.157.54
76.97.8.196
76.106.149.68
76.192.65.169
76.204.63.172
76.252.151.48
77.3.138.146
77.9.79.169
77.9.98.114
77.11.18.46
77.20.140.61
77.22.52.52
77.22.59.144
77.22.232.187
77.32.108.46
77.33.0.81
77.37.3.7
77.37.29.190
77.48.28.193
77.48.28.236
77.48.28.237
77.48.28.239
77.48.28.240
77.58.105.34
77.64.175.145
77.68.20.86
77.68.30.104
77.68.67.193
77.68.91.61
77.68.100.112
77.68.111.120
77.73.69.128
77.73.70.167
77.74.96.43
77.81.247.72
77.83.198.149
77.83.198.213
77.91.74.149
77.91.85.147
77.91.86.95
77.91.87.79
77.97.212.160
77.105.107.21
77.105.146.42
77.109.152.87
77.109.152.148
77.120.137.93
77.123.155.45
77.160.53.97
77.162.229.73
77.169.65.156
77.171.80.188
77.172.70.151
77.174.62.158
77.174.164.37
77.220.196.253
77.221.159.75
77.221.159.184
77.221.159.189
77.221.159.192
77.221.159.193
77.232.143.248
77.237.52.14
77.253.223.171
78.10.130.226
78.31.64.196
78.31.65.42
78.31.67.22
78.31.228.154
78.33.99.62
78.35.74.110
78.43.56.44
78.43.113.64
78.43.117.254
78.45.83.195
78.46.120.54
78.46.123.26
78.46.162.123
78.46.177.87
78.46.193.215
78.46.209.112
78.47.11.224
78.47.14.99
78.47.32.42
78.47.39.90
78.47.43.253
78.47.62.116
78.47.161.178
78.47.169.189
78.47.189.21
78.47.209.122
78.47.209.123
78.47.209.124
78.47.209.125
78.47.209.126
78.51.217.1
78.61.137.118
78.66.132.27
78.69.248.55
78.80.47.85
78.80.161.129
78.83.20.86
78.94.30.84
78.130.174.8
78.133.66.34
78.138.98.42
78.141.211.44
78.141.211.177
78.142.18.219
78.153.130.32
78.159.117.165
78.194.158.30
78.196.33.136
79.9.202.205
79.24.93.115
79.26.168.170
79.45.207.30
79.54.42.239
79.57.55.165
79.57.55.166
79.102.220.130
79.110.193.183
79.113.201.139
79.114.109.112
79.114.170.106
79.116.19.84
79.116.35.17
79.116.53.116
79.117.41.231
79.117.60.71
79.118.80.20
79.118.216.29
79.124.7.11
79.124.8.135
79.124.8.241
79.130.19.243
79.133.56.51
79.137.198.213
79.137.202.92
79.137.202.216
79.140.184.201
79.141.165.172
79.141.174.124
79.141.175.229
79.143.177.192
79.143.181.221
79.143.183.69
79.143.186.17
79.158.148.14
79.179.45.129
79.185.197.169
79.191.207.197
79.192.117.122
79.192.213.25
79.201.247.7
79.207.93.188
79.207.123.228
79.211.40.83
79.219.28.246
79.220.85.79
79.221.131.58
79.225.101.105
79.230.128.129
79.233.191.62
79.240.210.216
79.250.74.82
79.253.8.102
79.254.166.251
79.255.195.113
80.64.181.152
80.64.218.59
80.66.135.123
80.67.167.81
80.67.167.86
80.67.172.162
80.71.227.188
80.78.22.42
80.78.23.147
80.82.78.14
80.92.204.251
80.94.92.17
80.96.156.59
80.108.10.98
80.109.197.24
80.121.146.115
80.133.215.60
80.133.253.194
80.138.205.5
80.145.66.100
80.147.33.157
80.151.36.96
80.151.220.220
80.183.58.41
80.195.92.220
80.200.169.62
80.209.233.177
80.210.78.252
80.211.74.173
80.211.130.241
80.211.240.153
80.221.56.249
80.241.60.207
80.241.214.102
80.241.217.52
80.241.220.57
80.248.247.191
80.255.0.180
81.0.31.238
81.0.218.34
81.0.248.210
81.6.46.82
81.6.47.149
81.7.10.19
81.7.10.193
81.7.14.253
81.7.16.177
81.7.18.7
81.7.18.96
81.16.33.42
81.17.28.95
81.17.28.117
81.17.30.48
81.17.60.24
81.40.100.62
81.44.112.213
81.56.176.71
81.78.239.117
81.79.53.230
81.95.11.117
81.98.64.85
81.109.85.125
81.152.167.108
81.161.238.51
81.161.238.57
81.161.238.136
81.164.204.205
81.166.83.239
81.169.134.23
81.169.159.28
81.169.166.81
81.169.186.16
81.169.222.158
81.169.240.47
81.169.240.172
81.171.17.167
81.172.172.173
81.182.253.73
81.201.202.101
81.204.240.190
81.224.47.237
81.229.47.148
81.230.133.109
81.230.245.67
82.7.89.242
82.13.125.82
82.33.84.2
82.36.133.46
82.43.196.64
82.55.87.189
82.58.61.106
82.60.26.18
82.64.20.171
82.64.46.143
82.64.75.232
82.64.135.138
82.64.162.213
82.64.190.82
82.64.223.54
82.64.238.84
82.64.243.112
82.65.45.218
82.65.113.215
82.65.123.107
82.65.142.205
82.65.150.138
82.65.165.202
82.65.217.155
82.66.10.17
82.66.36.3
82.66.44.39
82.66.61.19
82.66.88.54
82.66.130.173
82.66.185.227
82.66.197.211
82.66.237.71
82.66.249.246
82.66.250.48
82.67.11.128
82.68.0.77
82.68.49.227
82.76.102.45
82.94.251.227
82.118.21.80
82.118.23.198
82.118.242.36
82.118.242.103
82.118.242.158
82.118.242.226
82.121.118.21
82.130.23.221
82.147.159.65
82.149.227.123
82.149.227.124
82.149.227.125
82.149.227.126
82.149.227.236
82.153.138.48
82.153.138.119
82.153.138.182
82.153.138.209
82.165.4.162
82.165.10.149
82.165.10.174
82.165.20.161
82.165.34.36
82.165.70.65
82.165.76.126
82.165.77.33
82.165.96.172
82.165.101.234
82.165.116.173
82.165.167.46
82.165.177.112
82.165.182.199
82.165.201.150
82.165.201.185
82.165.206.196
82.165.215.74
82.165.244.94
82.168.32.82
82.168.62.152
82.172.182.1
82.180.160.146
82.196.11.10
82.197.160.67
82.197.182.161
82.213.224.44
82.213.225.204
82.220.38.150
82.220.95.139
82.221.128.191
82.221.131.5
82.221.131.71
82.221.139.190
82.223.1.192
82.223.2.134
82.223.70.114
82.223.84.105
82.223.101.18
82.223.114.35
82.223.165.239
83.0.60.229
83.22.255.62
83.26.9.159
83.31.194.4
83.37.94.250
83.38.32.247
83.43.96.111
83.63.25.13
83.96.213.63
83.97.20.77
83.97.79.191
83.136.106.96
83.136.107.114
83.147.41.93
83.148.233.129
83.159.242.236
83.168.69.84
83.168.200.203
83.190.118.24
83.212.72.189
83.212.81.32
83.212.96.97
83.212.100.100
83.212.104.45
83.212.117.37
83.217.9.73
83.219.162.228
83.222.138.227
83.227.47.214
83.240.70.50
83.249.23.51
83.250.34.148
83.255.154.238
84.1.53.54
84.16.224.227
84.19.188.216
84.21.131.144
84.29.146.174
84.31.59.47
84.32.131.84
84.32.131.123
84.32.131.124
84.32.131.125
84.32.131.126
84.32.131.127
84.32.214.90
84.38.134.230
84.38.134.231
84.38.134.232
84.38.134.233
84.38.134.234
84.44.229.13
84.46.71.252
84.46.83.130
84.46.243.189
84.50.88.209
84.52.204.253
84.54.51.61
84.54.51.64
84.54.51.68
84.54.51.69
84.54.51.84
84.54.51.86
84.54.51.87
84.54.51.91
84.54.51.92
84.54.51.152
84.69.86.93
84.69.130.204
84.73.217.59
84.86.150.93
84.87.117.63
84.118.224.155
84.139.16.177
84.144.53.36
84.148.169.151
84.150.149.210
84.157.201.15
84.159.100.150
84.160.157.123
84.165.237.159
84.166.209.38
84.168.105.211
84.168.116.35
84.171.66.204
84.172.114.225
84.174.230.208
84.185.152.144
84.185.228.38
84.190.199.100
84.191.131.61
84.191.171.55
84.196.4.69
84.196.6.43
84.198.112.154
84.211.225.54
84.216.26.137
84.234.97.219
84.238.10.142
84.239.46.144
84.240.60.234
84.245.205.181
84.247.160.4
84.247.164.52
84.247.164.64
84.247.164.65
84.247.165.51
84.247.182.14
84.247.182.15
84.247.182.16
84.247.182.17
84.247.182.18
84.247.182.20
84.247.182.21
84.247.182.22
84.247.182.23
84.247.182.24
84.247.182.25
84.247.182.26
84.247.182.27
84.247.182.28
84.247.182.29
84.247.182.30
84.247.182.31
84.247.182.32
84.247.182.33
84.247.182.34
84.247.182.35
84.247.182.36
84.247.182.37
84.247.182.38
84.247.182.39
84.247.182.40
84.248.83.40
84.249.19.20
84.251.41.237
84.252.120.197
85.0.13.156
85.0.84.233
85.1.203.209
85.10.176.97
85.10.240.250
85.16.55.237
85.17.9.83
85.17.25.46
85.17.127.129
85.17.140.73
85.23.104.222
85.25.2.6
85.30.131.60
85.49.7.119
85.50.3.223
85.89.172.150
85.93.218.204
85.93.254.36
85.119.82.131
85.119.82.142
85.120.227.103
85.131.120.243
85.146.24.163
85.159.228.20
85.159.228.63
85.167.198.110
85.183.60.50
85.195.115.5
85.195.208.215
85.195.230.249
85.195.232.63
85.195.244.251
85.195.253.142
85.202.163.94
85.204.27.219
85.204.116.62
85.204.116.88
85.204.116.100
85.204.116.211
85.208.69.66
85.208.144.164
85.209.46.236
85.209.49.222
85.209.50.10
85.209.51.37
85.214.42.55
85.214.52.114
85.214.58.236
85.214.64.22
85.214.111.133
85.214.122.29
85.214.128.156
85.214.149.151
85.214.151.174
85.214.165.61
85.214.200.184
85.214.202.158
85.214.212.219
85.214.236.165
85.215.34.3
85.215.41.116
85.215.42.225
85.215.46.141
85.215.50.145
85.215.51.161
85.215.53.30
85.215.53.227
85.215.61.28
85.215.61.134
85.215.65.232
85.215.66.179
85.215.67.227
85.215.68.72
85.215.76.62
85.215.76.111
85.215.76.123
85.215.88.244
85.215.91.150
85.215.114.1
85.215.145.68
85.215.153.202
85.215.160.111
85.215.160.128
85.215.181.200
85.215.191.127
85.215.200.200
85.215.208.36
85.215.214.132
85.215.231.134
85.215.236.166
85.215.236.175
85.215.236.179
85.225.158.138
85.228.187.236
85.230.184.150
85.235.66.146
85.235.67.10
85.235.129.161
85.239.34.6
85.239.34.24
85.239.34.239
85.239.40.27
85.239.40.81
85.239.55.237
85.239.60.173
85.239.244.9
85.241.105.64
86.2.83.150
86.2.211.151
86.13.190.107
86.13.252.199
86.14.169.71
86.17.88.29
86.18.242.248
86.22.106.39
86.49.133.106
86.56.60.83
86.59.21.163
86.86.126.113
86.86.173.62
86.87.33.247
86.104.194.13
86.104.194.27
86.107.168.24
86.107.168.38
86.115.29.77
86.121.161.39
86.121.179.2
86.122.21.26
86.124.230.136
86.125.246.209
86.128.126.106
86.136.49.127
86.145.157.13
86.171.106.1
86.175.224.58
86.182.129.29
86.186.223.64
86.188.63.194
87.2.13.170
87.8.221.12
87.8.231.140
87.13.71.164
87.14.99.249
87.21.149.218
87.54.95.17
87.61.100.125
87.62.96.246
87.92.228.208
87.98.237.152
87.98.242.239
87.98.243.204
87.100.217.17
87.104.37.132
87.106.158.67
87.106.158.97
87.106.158.239
87.106.159.26
87.106.159.33
87.106.159.36
87.106.159.40
87.106.168.172
87.106.192.222
87.106.207.35
87.106.229.54
87.106.229.129
87.106.235.75
87.106.239.199
87.114.104.79
87.118.88.94
87.118.110.27
87.118.112.136
87.118.114.44
87.118.115.44
87.118.116.90
87.118.116.103
87.118.122.30
87.118.122.51
87.120.8.91
87.120.237.130
87.120.254.132
87.121.52.112
87.121.52.181
87.121.52.182
87.121.69.162
87.121.69.163
87.121.69.164
87.121.69.168
87.121.69.169
87.122.126.44
87.123.24.175
87.128.54.218
87.132.96.15
87.138.152.33
87.139.33.217
87.142.154.245
87.149.70.175
87.151.62.84
87.162.127.232
87.171.70.25
87.175.57.61
87.180.188.23
87.181.21.232
87.223.69.28
87.229.85.197
87.229.115.23
87.236.194.23
87.236.195.198
87.236.195.203
87.236.195.216
87.236.197.123
87.236.199.239
87.237.165.31
87.245.103.16
87.245.110.44
87.247.68.139
87.251.64.218
87.251.79.10
88.10.171.254
88.17.233.186
88.66.30.111
88.71.133.5
88.76.139.56
88.80.20.86
88.80.184.11
88.90.10.193
88.90.162.62
88.99.2.111
88.99.4.50
88.99.7.87
88.99.31.186
88.99.68.228
88.99.76.10
88.99.86.9
88.99.94.231
88.99.104.83
88.99.105.161
88.99.144.235
88.99.145.25
88.99.192.251
88.99.214.88
88.99.248.158
88.113.123.228
88.119.171.118
88.134.139.6
88.150.1.103
88.150.25.53
88.150.105.253
88.151.194.12
88.151.194.118
88.152.71.98
88.152.235.192
88.177.209.148
88.195.223.91
88.198.35.49
88.198.75.143
88.198.77.51
88.198.101.33
88.198.207.48
88.198.209.95
88.208.56.9
88.208.196.199
88.209.197.8
88.209.197.220
88.214.57.188
88.216.2.90
88.216.223.2
88.216.223.3
88.216.223.5
89.0.81.4
89.12.85.215
89.21.65.179
89.33.85.21
89.33.85.168
89.34.18.151
89.36.231.153
89.36.231.209
89.36.231.210
89.39.105.55
89.39.161.241
89.44.198.199
89.45.184.119
89.46.100.71
89.58.0.34
89.58.1.100
89.58.2.121
89.58.3.65
89.58.3.114
89.58.4.118
89.58.5.0
89.58.15.141
89.58.17.198
89.58.17.212
89.58.17.228
89.58.18.210
89.58.26.150
89.58.26.216
89.58.27.5
89.58.27.85
89.58.30.165
89.58.32.67
89.58.33.214
89.58.34.53
89.58.36.174
89.58.40.94
89.58.41.156
89.58.41.251
89.58.43.44
89.58.43.207
89.58.45.9
89.58.45.45
89.58.48.237
89.58.49.77
89.58.52.69
89.58.53.213
89.58.54.129
89.58.55.205
89.58.56.112
89.58.58.14
89.58.58.106
89.58.58.209
89.58.60.208
89.58.61.21
89.58.61.42
89.58.62.138
89.58.63.200
89.74.86.55
89.85.185.88
89.115.155.184
89.116.25.73
89.117.145.38
89.147.108.35
89.147.108.62
89.147.108.149
89.147.108.209
89.147.109.13
89.147.109.91
89.147.109.123
89.147.109.226
89.147.110.82
89.147.110.112
89.147.110.118
89.147.110.154
89.147.110.200
89.147.110.202
89.147.110.214
89.147.111.28
89.147.111.87
89.147.111.89
89.147.111.106
89.147.111.124
89.147.111.181
89.148.100.127
89.150.131.83
89.150.132.174
89.150.140.164
89.152.139.235
89.153.138.189
89.161.26.78
89.163.135.8
89.163.152.213
89.163.164.202
89.163.211.14
89.163.231.179
89.168.17.69
89.168.70.178
89.169.53.56
89.185.85.140
89.185.109.216
89.187.143.31
89.190.6.9
89.191.198.167
89.191.217.1
89.203.249.226
89.208.106.13
89.210.232.109
89.212.93.205
89.212.103.241
89.221.224.96
89.221.225.32
89.221.225.120
89.234.157.254
89.236.112.100
89.244.194.203
89.244.217.29
89.245.40.32
89.245.72.166
89.246.49.160
89.247.26.209
89.248.165.40
90.21.148.18
90.53.112.187
90.86.126.4
90.95.57.128
90.120.126.232
90.126.115.126
90.143.213.98
90.146.187.6
90.155.5.6
90.177.163.77
90.187.254.173
90.191.149.114
90.193.120.143
90.226.20.29
90.231.147.132
90.243.248.166
91.12.182.234
91.12.186.213
91.13.197.189
91.19.232.36
91.21.192.77
91.33.89.182
91.35.151.194
91.37.198.242
91.47.206.219
91.52.97.105
91.58.190.171
91.59.231.233
91.64.150.52
91.64.247.155
91.65.103.44
91.65.248.99
91.66.138.125
91.89.218.178
91.92.109.43
91.92.109.126
91.92.244.14
91.92.246.139
91.103.253.141
91.107.212.52
91.108.241.70
91.112.69.62
91.114.205.131
91.121.147.65
91.121.219.14
91.126.115.173
91.126.217.153
91.132.144.59
91.132.144.85
91.132.145.245
91.132.146.89
91.132.146.135
91.132.146.181
91.132.146.190
91.132.146.206
91.132.147.156
91.132.147.168
91.133.95.14
91.135.7.214
91.139.160.150
91.143.80.230
91.143.81.27
91.143.81.212
91.143.83.100
91.143.85.52
91.143.87.51
91.143.87.136
91.143.88.2
91.143.88.62
91.145.119.77
91.148.187.189
91.149.242.91
91.151.93.46
91.177.21.75
91.186.32.144
91.192.81.77
91.193.18.63
91.193.18.143
91.195.201.54
91.200.101.151
91.203.5.141
91.203.144.194
91.203.145.114
91.203.145.116
91.204.6.136
91.205.230.113
91.206.26.26
91.206.228.91
91.206.228.120
91.206.228.132
91.208.75.3
91.208.75.4
91.208.75.153
91.208.75.156
91.208.75.178
91.208.75.239
91.208.162.145
91.208.184.123
91.208.197.144
91.208.197.187
91.208.197.221
91.208.206.56
91.210.59.57
91.213.8.89
91.213.8.130
91.213.233.138
91.216.111.52
91.217.121.118
91.217.219.253
91.218.20.104
91.218.195.198
91.219.29.94
91.219.30.55
91.219.60.67
91.219.236.77
91.219.236.101
91.219.237.56
91.219.237.160
91.219.238.120
91.219.238.148
91.219.238.221
91.219.239.166
91.219.245.62
91.223.82.135
91.223.82.197
91.224.90.35
91.228.52.8
91.228.52.73
91.228.52.211
91.228.53.49
91.229.132.69
91.229.245.102
91.231.182.136
91.233.116.51
91.242.163.24
91.242.241.78
91.244.197.76
91.245.255.87
91.250.81.52
92.21.217.148
92.27.150.44
92.27.150.45
92.27.150.46
92.27.150.47
92.28.67.140
92.32.77.156
92.35.20.70
92.35.68.2
92.38.162.88
92.39.23.135
92.42.14.204
92.50.86.110
92.51.45.21
92.60.36.153
92.60.37.105
92.60.38.166
92.104.160.187
92.106.221.55
92.116.173.241
92.116.233.223
92.116.255.109
92.117.23.87
92.119.124.84
92.119.126.161
92.119.126.163
92.119.159.25
92.133.238.108
92.138.115.232
92.148.137.89
92.170.182.22
92.176.200.1
92.192.231.54
92.204.40.241
92.204.41.234
92.205.17.93
92.205.17.128
92.205.129.7
92.205.129.119
92.205.161.164
92.206.91.123
92.216.140.179
92.219.107.83
92.221.242.195
92.222.79.186
92.222.172.56
92.223.105.117
92.223.105.174
92.243.0.63
92.243.0.179
92.243.20.101
92.243.24.163
92.243.65.197
92.244.31.28
92.246.84.133
92.246.138.145
92.247.48.183
92.249.48.135
92.249.143.119
92.252.61.225
93.7.140.202
93.19.58.38
93.19.58.40
93.31.68.14
93.38.122.13
93.41.149.117
93.44.180.40
93.48.40.45
93.55.234.1
93.55.235.232
93.56.117.22
93.58.252.139
93.71.31.88
93.90.74.30
93.90.74.31
93.90.194.106
93.90.200.181
93.90.202.104
93.90.203.42
93.93.118.87
93.95.88.13
93.95.225.141
93.95.227.119
93.95.228.51
93.95.228.74
93.95.228.125
93.95.228.131
93.95.228.205
93.95.230.34
93.95.230.54
93.95.230.85
93.95.230.102
93.95.230.165
93.95.230.245
93.95.231.14
93.95.231.88
93.95.231.110
93.95.231.115
93.99.104.18
93.99.104.128
93.104.100.102
93.115.27.81
93.115.97.242
93.115.240.55
93.118.34.246
93.119.15.82
93.123.12.112
93.135.113.165
93.135.170.100
93.158.213.15
93.160.17.86
93.177.65.182
93.177.67.43
93.177.73.98
93.177.75.10
93.180.157.154
93.185.165.76
93.186.200.169
93.190.141.26
93.190.143.41
93.194.125.94
93.201.146.171
93.201.217.226
93.205.13.202
93.206.72.13
93.207.44.99
93.210.35.247
93.212.34.69
93.212.57.10
93.215.27.143
93.231.48.34
93.231.252.195
93.233.190.127
93.235.182.76
93.239.150.126
93.245.55.238
94.16.104.103
94.16.104.159
94.16.105.206
94.16.107.178
94.16.109.180
94.16.112.22
94.16.112.172
94.16.113.89
94.16.113.135
94.16.114.231
94.16.114.247
94.16.116.48
94.16.116.81
94.16.116.86
94.16.116.156
94.16.118.23
94.16.118.250
94.16.120.204
94.16.121.91
94.16.121.226
94.16.122.61
94.16.123.67
94.16.123.97
94.16.123.171
94.16.147.223
94.21.167.225
94.23.68.187
94.23.70.32
94.23.76.52
94.23.76.244
94.23.121.150
94.23.148.66
94.23.149.136
94.23.150.210
94.23.168.79
94.23.172.32
94.23.210.85
94.23.221.17
94.23.247.42
94.23.248.158
94.26.73.162
94.32.66.15
94.46.171.151
94.46.171.221
94.46.171.245
94.62.52.227
94.72.118.116
94.72.118.117
94.72.118.118
94.72.118.119
94.72.118.122
94.72.118.123
94.74.253.186
94.75.225.81
94.100.6.10
94.100.6.13
94.100.6.27
94.100.6.30
94.100.6.72
94.102.51.15
94.103.124.46
94.103.124.90
94.103.124.91
94.103.124.98
94.103.124.101
94.103.124.104
94.103.124.107
94.103.124.121
94.103.188.80
94.105.105.238
94.113.165.24
94.130.10.251
94.130.51.212
94.130.129.15
94.130.132.10
94.130.142.182
94.130.185.68
94.130.189.8
94.130.227.162
94.131.2.237
94.131.13.242
94.131.15.74
94.131.119.29
94.131.119.85
94.131.171.105
94.134.164.252
94.140.112.98
94.140.112.158
94.140.115.63
94.140.115.114
94.140.120.130
94.142.241.194
94.142.244.16
94.143.137.213
94.154.159.96
94.155.21.35
94.156.69.121
94.156.128.10
94.156.175.85
94.156.175.86
94.156.175.120
94.158.246.117
94.168.120.10
94.177.8.200
94.177.106.32
94.177.106.37
94.177.106.41
94.177.106.46
94.177.106.54
94.177.106.55
94.177.106.59
94.199.214.229
94.216.191.71
94.220.89.10
94.224.67.24
94.228.163.25
94.228.169.70
94.230.208.147
94.230.208.148
94.230.217.52
94.242.53.228
94.242.59.47
95.23.252.197
95.85.90.130
95.88.71.82
95.89.34.50
95.90.105.121
95.98.44.166
95.99.51.184
95.110.254.231
95.111.230.178
95.111.243.215
95.119.238.6
95.119.254.72
95.128.43.164
95.141.32.124
95.141.83.146
95.141.83.155
95.142.39.48
95.142.102.58
95.142.161.63
95.143.193.125
95.144.38.160
95.150.87.9
95.153.31.8
95.153.31.38
95.153.32.22
95.164.4.104
95.164.34.180
95.164.46.204
95.166.12.135
95.168.173.143
95.179.160.189
95.179.162.106
95.179.180.139
95.179.214.75
95.182.138.55
95.211.4.174
95.211.136.23
95.211.138.7
95.211.138.51
95.211.147.99
95.211.184.218
95.211.194.165
95.211.208.141
95.211.210.72
95.211.210.103
95.211.244.28
95.214.52.187
95.214.53.96
95.215.45.138
95.216.2.172
95.216.3.171
95.216.9.173
95.216.12.30
95.216.13.55
95.216.13.120
95.216.19.41
95.216.20.80
95.216.22.22
95.216.22.24
95.216.22.87
95.216.23.120
95.216.27.105
95.216.32.14
95.216.33.30
95.216.33.58
95.216.35.84
95.216.35.176
95.216.61.210
95.216.61.211
95.216.65.25
95.216.72.165
95.216.90.10
95.216.90.13
95.216.90.14
95.216.96.44
95.216.98.55
95.216.101.247
95.216.115.85
95.216.136.46
95.216.140.159
95.216.141.19
95.216.141.24
95.216.146.117
95.216.154.9
95.216.159.94
95.216.168.133
95.216.193.39
95.216.198.252
95.216.199.76
95.216.201.161
95.216.202.181
95.216.209.129
95.216.212.222
95.216.225.44
95.216.246.98
95.217.2.206
95.217.5.88
95.217.6.94
95.217.14.17
95.217.14.105
95.217.15.125
95.217.16.212
95.217.28.112
95.217.30.201
95.217.36.40
95.217.39.117
95.217.71.73
95.217.72.151
95.217.109.36
95.217.112.218
95.217.112.243
95.217.112.245
95.217.129.223
95.217.133.157
95.217.135.55
95.217.156.221
95.217.164.89
95.217.199.55
95.217.201.126
95.217.223.54
95.217.231.111
95.217.235.129
95.222.140.85
95.222.201.54
95.232.0.213
95.233.44.117
95.247.122.7
95.251.0.2
96.20.102.87
96.22.27.178
96.27.198.133
96.42.26.63
96.65.68.193
96.66.15.152
96.126.105.219
96.227.69.26
96.232.179.233
96.234.175.139
96.234.180.68
96.238.57.164
96.244.38.131
96.245.83.39
96.255.23.226
97.107.139.108
97.113.7.204
97.113.206.83
97.116.55.74
98.7.40.198
98.24.213.184
98.29.204.31
98.46.41.72
98.63.3.30
98.115.87.163
98.115.184.252
98.121.68.25
98.123.190.194
98.128.173.1
98.128.173.33
98.128.175.41
98.128.175.45
98.128.175.69
98.155.3.106
98.165.54.32
98.168.31.145
98.176.98.126
98.206.28.99
99.47.29.66
99.76.233.159
99.106.143.239
99.111.119.180
99.122.201.244
99.185.102.97
100.8.8.137
100.8.53.158
100.10.37.131
100.14.156.183
101.55.125.10
101.100.141.137
102.119.105.242
102.130.113.9
102.130.113.29
102.130.113.30
102.130.113.42
102.130.117.25
102.130.117.167
102.130.119.48
102.132.130.236
102.182.199.43
102.217.38.77
102.219.85.85
102.222.108.91
103.1.206.54
103.4.153.21
103.21.3.89
103.26.221.164
103.28.52.93
103.29.70.42
103.56.4.115
103.70.115.107
103.75.116.113
103.97.125.208
103.97.125.218
103.106.3.175
103.106.228.81
103.109.100.207
103.109.101.105
103.113.71.186
103.126.161.54
103.127.97.181
103.129.222.46
103.160.62.252
103.160.63.138
103.160.63.141
103.163.218.11
103.166.156.127
103.167.34.79
103.168.146.217
103.168.147.201
103.168.147.251
103.172.134.26
103.174.253.222
103.175.16.53
103.178.153.23
103.178.153.66
103.193.179.233
103.196.37.111
103.200.210.66
103.208.86.5
103.209.24.218
103.212.223.2
103.214.5.96
103.214.5.150
103.214.7.77
103.214.7.250
103.214.7.251
103.215.229.117
103.215.229.196
103.215.229.245
103.215.229.250
103.219.153.27
103.251.167.10
103.251.167.20
103.253.24.18
104.36.84.100
104.36.85.188
104.36.85.255
104.37.193.102
104.37.251.124
104.53.221.159
104.57.231.26
104.131.11.214
104.131.72.61
104.131.108.7
104.143.65.187
104.152.209.217
104.156.225.206
104.157.190.164
104.167.16.71
104.167.242.116
104.167.242.117
104.168.28.24
104.168.28.159
104.168.35.199
104.168.205.106
104.171.212.18
104.192.1.138
104.192.3.74
104.192.171.138
104.200.17.42
104.207.158.50
104.219.232.126
104.219.236.100
104.219.236.134
104.219.250.152
104.234.67.152
104.236.87.90
104.238.167.111
104.238.220.59
104.244.72.20
104.244.72.115
104.244.72.132
104.244.72.188
104.244.73.43
104.244.73.133
104.244.73.136
104.244.73.190
104.244.73.193
104.244.74.97
104.244.75.74
104.244.76.184
104.244.77.192
104.244.77.208
104.244.78.162
104.244.78.233
104.244.79.25
104.244.79.44
104.244.79.50
104.244.79.61
104.244.79.75
104.244.79.122
104.248.15.16
104.248.18.193
104.248.21.236
104.254.128.202
104.254.130.186
106.70.251.222
106.138.55.17
107.11.186.105
107.139.200.10
107.140.222.107
107.142.43.5
107.150.32.250
107.152.35.142
107.152.46.201
107.155.69.234
107.155.81.178
107.155.127.2
107.161.154.64
107.170.219.188
107.172.3.5
107.172.13.143
107.172.29.62
107.172.31.146
107.172.31.165
107.172.157.34
107.172.196.51
107.173.15.240
107.173.18.44
107.173.25.246
107.173.41.111
107.173.89.174
107.173.148.133
107.173.164.60
107.173.167.241
107.173.180.36
107.174.33.155
107.174.115.28
107.174.138.172
107.174.231.197
107.175.28.214
107.175.85.67
107.175.136.39
107.175.245.182
107.189.1.9
107.189.1.80
107.189.1.96
107.189.1.160
107.189.1.174
107.189.1.175
107.189.1.198
107.189.2.108
107.189.3.11
107.189.3.94
107.189.3.148
107.189.3.249
107.189.4.12
107.189.4.76
107.189.4.158
107.189.4.209
107.189.5.7
107.189.5.18
107.189.5.19
107.189.5.25
107.189.5.121
107.189.6.57
107.189.6.124
107.189.7.47
107.189.7.114
107.189.7.141
107.189.7.144
107.189.7.161
107.189.7.168
107.189.8.5
107.189.8.12
107.189.8.16
107.189.8.56
107.189.8.65
107.189.8.133
107.189.8.181
107.189.8.226
107.189.8.238
107.189.10.86
107.189.10.138
107.189.10.175
107.189.11.80
107.189.11.111
107.189.12.3
107.189.12.7
107.189.12.52
107.189.12.101
107.189.12.251
107.189.13.91
107.189.13.151
107.189.13.180
107.189.13.251
107.189.13.253
107.189.13.254
107.189.14.4
107.189.14.43
107.189.14.106
107.189.28.139
107.189.28.199
107.189.30.60
107.189.30.69
107.189.30.86
107.189.30.236
107.189.31.33
107.189.31.134
107.189.31.187
107.189.31.225
107.189.31.232
107.219.70.113
108.3.165.73
108.7.213.145
108.26.0.94
108.30.207.111
108.35.139.78
108.44.225.233
108.51.46.7
108.61.189.136
108.61.213.90
108.62.103.193
108.62.119.77
108.62.211.200
108.62.211.205
108.62.222.27
108.62.222.49
108.175.0.161
108.180.93.154
108.180.142.78
108.181.22.201
108.181.27.205
108.181.33.185
108.181.57.163
108.181.57.251
108.181.57.253
108.181.69.243
108.181.94.150
108.181.98.247
108.181.100.49
108.181.132.237
108.181.132.245
108.181.133.5
108.181.133.69
108.244.47.45
108.246.106.142
109.69.67.17
109.69.218.51
109.69.218.176
109.70.100.1
109.70.100.2
109.70.100.3
109.70.100.4
109.70.100.5
109.70.100.6
109.70.100.65
109.70.100.66
109.70.100.67
109.70.100.68
109.70.100.69
109.70.100.70
109.70.100.71
109.73.65.37
109.78.107.254
109.87.25.148
109.90.31.112
109.92.177.220
109.100.59.186
109.102.40.171
109.104.152.73
109.104.152.127
109.104.152.134
109.104.152.167
109.104.153.22
109.104.153.187
109.104.155.20
109.105.109.162
109.107.35.154
109.107.157.24
109.120.133.79
109.123.231.54
109.123.231.55
109.123.233.138
109.123.239.183
109.123.239.186
109.123.242.121
109.136.58.82
109.138.82.63
109.169.33.163
109.173.233.112
109.183.26.233
109.201.133.100
109.204.224.163
109.204.233.19
109.223.63.239
109.228.39.19
109.230.224.193
109.230.224.213
109.230.236.82
109.236.83.11
109.238.11.6
109.241.231.117
109.245.65.243
109.248.147.138
109.248.147.172
109.250.25.178
109.250.171.211
109.250.191.206
109.251.55.19
110.4.47.139
111.69.37.214
111.216.94.42
112.199.213.52
113.20.28.216
113.20.28.243
114.23.164.80
114.34.165.141
114.35.64.203
114.35.245.150
114.45.34.79
114.45.63.217
114.199.75.111
116.12.180.234
116.12.180.237
116.48.187.154
116.73.125.48
116.202.2.123
116.202.104.202
116.202.117.160
116.202.150.27
116.202.171.177
116.202.179.148
116.202.224.62
116.202.233.112
116.202.237.212
116.202.251.46
116.203.17.238
116.203.50.182
116.203.64.212
116.203.73.143
116.203.195.42
116.251.139.136
116.255.1.163
117.53.155.113
117.194.62.108
117.214.119.175
118.27.12.40
118.160.68.101
118.160.79.67
118.160.84.65
118.160.87.60
118.160.90.239
118.163.74.160
118.172.97.155
118.237.112.18
119.18.35.197
119.247.13.23
121.45.202.250
121.50.43.135
121.75.147.137
121.78.28.175
121.98.26.205
121.122.88.127
121.127.33.4
122.208.194.124
123.208.170.43
123.218.251.8
123.253.34.26
123.253.35.32
123.255.60.95
123.255.62.137
124.170.9.211
124.217.247.210
125.30.60.31
125.59.212.242
125.212.241.131
125.229.71.137
128.0.64.148
128.31.0.13
128.31.0.39
128.31.0.61
128.127.57.98
128.127.180.156
128.135.164.40
128.140.2.186
128.140.49.22
128.140.66.194
128.140.81.180
128.140.99.183
128.140.112.79
128.140.116.120
128.140.124.151
128.199.131.168
128.199.146.186
128.232.18.58
128.238.62.37
129.13.131.140
129.80.29.236
129.126.111.54
129.150.32.113
129.151.200.208
129.151.218.233
129.151.221.228
129.151.254.245
129.152.2.215
129.152.8.9
129.152.19.236
129.153.176.17
129.153.215.190
129.159.42.2
129.213.53.128
129.213.126.211
130.51.200.136
130.61.16.129
130.61.22.245
130.61.32.148
130.61.37.185
130.61.42.6
130.61.43.181
130.61.48.162
130.61.50.97
130.61.51.183
130.61.119.99
130.61.125.241
130.61.168.243
130.61.173.116
130.61.174.40
130.61.174.206
130.61.189.174
130.61.220.149
130.61.232.241
130.89.149.57
130.162.33.30
130.162.44.238
130.162.54.65
130.162.211.231
130.162.228.132
130.162.245.222
130.180.63.150
130.193.10.21
130.193.15.49
130.193.15.186
130.193.15.191
130.225.244.90
130.255.78.232
131.153.152.122
131.153.152.146
131.153.152.170
131.174.23.228
131.188.40.188
131.188.40.189
131.203.32.146
131.255.4.48
132.145.22.208
132.145.56.164
132.145.62.236
132.145.79.99
132.145.82.233
132.145.83.161
132.145.99.212
132.145.168.66
132.145.168.170
132.145.168.215
132.145.245.6
132.145.255.192
132.226.202.222
132.248.241.5
133.18.168.48
133.167.74.94
133.232.152.10
133.242.146.78
133.242.204.175
134.3.129.57
134.41.140.4
134.65.240.136
134.101.174.166
134.101.179.115
134.102.200.101
134.119.32.208
134.122.66.38
134.130.172.229
134.195.185.52
134.195.196.69
134.195.198.65
134.209.85.230
134.209.159.74
134.209.167.158
134.215.126.217
134.255.232.95
135.125.89.25
135.125.147.165
135.125.202.252
135.125.205.25
135.125.233.127
135.125.250.251
135.135.199.41
135.148.27.19
135.148.50.253
135.148.52.88
135.148.52.158
135.148.52.231
135.148.52.241
135.148.53.55
135.148.53.59
135.148.53.61
135.148.53.62
135.148.54.98
135.148.54.103
135.148.54.106
135.148.100.84
135.148.100.89
135.148.100.90
135.148.100.92
135.148.100.233
135.148.103.15
135.148.136.227
135.148.139.41
135.148.148.87
135.148.149.23
135.148.150.99
135.148.150.100
135.148.171.158
135.180.211.21
135.181.37.113
135.181.41.38
135.181.45.89
135.181.62.96
135.181.63.118
135.181.67.210
135.181.78.152
135.181.78.188
135.181.124.212
135.181.124.213
135.181.124.214
135.181.144.230
135.181.172.196
135.181.172.197
135.181.172.198
135.181.172.199
135.181.172.200
135.181.172.201
135.181.213.163
136.24.126.40
136.33.152.224
136.35.130.218
136.36.235.155
136.37.102.111
136.53.157.170
136.54.150.42
136.54.152.135
136.58.14.102
136.58.32.158
136.62.97.182
136.143.204.122
136.243.3.194
136.243.60.188
136.243.92.194
136.243.93.102
136.243.147.91
136.243.154.74
136.243.176.148
136.243.177.133
136.244.87.205
136.244.109.183
136.244.111.163
137.22.114.29
137.63.71.51
137.74.119.109
137.74.164.213
137.175.210.163
137.193.65.224
137.220.37.214
138.2.47.117
138.2.129.139
138.2.165.161
138.3.243.244
138.3.253.215
138.59.18.105
138.59.18.106
138.59.18.110
138.68.9.184
138.68.47.124
138.68.47.190
138.68.52.146
138.68.87.213
138.68.134.232
138.88.73.169
138.197.92.159
138.197.112.20
138.197.166.92
138.201.55.70
138.201.55.77
138.201.58.21
138.201.78.61
138.201.92.183
138.201.137.229
138.201.196.156
138.201.196.252
138.201.202.228
138.201.202.229
138.201.225.177
138.201.250.33
138.201.255.245
138.246.18.152
139.59.56.19
139.59.58.109
139.84.166.51
139.84.197.153
139.99.6.201
139.99.8.57
139.99.134.168
139.99.155.81
139.99.172.11
139.99.238.17
139.144.25.128
139.144.101.94
139.144.220.112
139.162.11.98
139.162.63.125
139.162.86.33
139.162.117.43
139.162.128.251
139.162.143.135
139.162.166.237
139.162.210.252
139.162.251.70
139.180.153.106
140.78.100.14
140.78.100.15
140.78.100.16
140.78.100.17
140.78.100.18
140.78.100.19
140.78.100.20
140.78.100.21
140.78.100.22
140.78.100.23
140.78.100.24
140.78.100.25
140.78.100.26
140.78.100.27
140.78.100.28
140.78.100.29
140.78.100.35
140.78.100.36
140.78.100.37
140.78.100.38
140.78.100.39
140.78.100.40
140.78.100.41
140.78.100.42
140.78.100.43
140.82.32.88
140.83.50.92
140.238.38.77
140.238.100.207
140.238.101.233
140.238.145.127
140.238.168.214
140.238.182.248
140.238.188.238
140.238.197.12
140.238.210.128
140.238.215.233
140.238.217.119
140.238.220.10
140.238.225.117
140.238.228.61
140.238.255.68
141.3.63.26
141.11.86.155
141.14.220.177
141.43.203.237
141.78.183.99
141.79.10.16
141.94.199.35
141.95.146.50
141.98.8.102
141.98.10.14
141.98.11.62
141.98.11.131
141.98.136.79
141.98.234.128
141.136.0.3
141.144.199.198
141.144.231.173
141.144.246.74
141.144.247.137
141.144.249.57
141.144.249.242
141.145.201.126
141.145.204.50
141.145.206.8
141.145.208.153
141.145.210.16
141.147.4.66
141.147.36.84
141.147.45.13
141.147.47.233
141.147.54.226
141.147.69.196
141.147.92.32
141.147.117.168
141.148.10.63
141.148.42.164
141.148.158.200
141.148.237.212
141.148.238.129
141.239.149.94
141.255.161.167
142.11.201.90
142.44.129.21
142.44.187.223
142.44.227.24
142.44.234.69
142.44.243.133
142.44.247.102
142.54.162.114
142.93.160.43
142.93.169.197
142.93.216.242
142.93.228.59
142.126.223.248
142.132.151.131
142.132.157.35
142.132.171.253
142.132.204.112
142.132.204.165
142.132.212.158
142.132.230.17
142.171.211.123
142.202.51.68
143.42.110.237
143.42.199.223
143.47.34.118
143.47.35.181
143.47.57.133
143.47.179.12
143.47.224.149
143.47.225.45
143.47.229.52
143.47.232.191
143.47.240.168
143.47.244.209
143.110.156.176
143.179.150.5
143.198.38.18
143.198.133.116
143.198.148.206
143.244.172.37
143.248.39.71
144.2.101.81
144.2.112.79
144.6.169.226
144.6.197.157
144.21.35.217
144.21.38.88
144.21.43.199
144.21.52.220
144.24.17.44
144.24.98.92
144.24.125.189
144.24.144.245
144.24.176.131
144.24.193.134
144.24.197.112
144.24.232.2
144.48.81.141
144.48.81.149
144.48.81.150
144.48.81.160
144.76.3.174
144.76.3.182
144.76.26.58
144.76.43.199
144.76.56.43
144.76.81.198
144.76.86.5
144.76.104.119
144.76.154.13
144.76.159.218
144.76.162.202
144.76.166.141
144.76.166.199
144.76.168.36
144.76.175.205
144.76.194.67
144.76.200.80
144.76.201.253
144.76.223.174
144.91.66.153
144.91.77.179
144.91.90.86
144.91.92.99
144.91.125.15
144.91.125.239
144.126.132.30
144.126.152.77
144.126.156.29
144.126.156.152
144.168.44.18
144.168.44.26
144.172.73.6
144.172.73.11
144.172.118.4
144.172.118.5
144.172.118.55
144.172.118.64
144.172.118.66
144.172.118.72
144.172.118.79
144.202.26.106
144.202.61.27
144.202.98.106
144.217.4.166
144.217.32.158
144.217.74.229
144.217.80.80
144.217.87.28
144.217.90.187
144.217.94.159
144.217.95.12
144.217.103.5
144.217.179.60
145.40.194.172
145.239.1.189
145.239.2.213
145.239.41.102
145.239.76.95
145.239.81.58
145.239.81.88
145.239.93.126
145.239.136.129
145.239.206.31
145.239.206.236
146.0.36.21
146.0.36.87
146.0.40.193
146.19.168.223
146.19.173.181
146.19.173.215
146.19.213.120
146.19.254.130
146.56.99.34
146.56.154.169
146.59.12.188
146.59.19.112
146.59.35.38
146.59.35.246
146.59.197.114
146.59.233.240
146.59.234.220
146.70.57.10
146.70.57.18
146.70.80.18
146.70.80.19
146.70.80.101
146.70.81.186
146.70.86.74
146.70.111.19
146.70.120.58
146.70.146.26
146.70.164.210
146.185.253.53
146.185.253.116
146.185.253.130
146.190.16.208
146.190.96.130
146.190.164.19
146.190.224.96
146.199.75.180
147.12.183.39
147.45.68.83
147.45.77.162
147.45.77.219
147.87.255.218
147.135.6.69
147.135.15.220
147.135.16.147
147.135.16.185
147.135.31.134
147.135.54.178
147.135.62.200
147.135.62.203
147.135.62.204
147.135.62.205
147.135.64.217
147.135.65.26
147.135.65.87
147.135.65.134
147.135.70.168
147.135.110.109
147.135.112.139
147.135.114.98
147.135.114.245
147.135.129.19
147.135.138.158
147.182.247.173
147.189.192.35
148.63.254.12
148.66.36.43
148.71.136.248
148.113.2.104
148.113.2.105
148.113.2.107
148.113.2.108
148.113.162.135
148.135.35.184
148.251.41.235
148.251.46.115
148.251.51.34
148.251.83.53
148.251.85.195
148.251.90.115
148.251.91.87
148.251.123.209
148.251.136.16
148.251.151.125
148.251.183.205
148.251.208.18
148.251.211.211
148.251.236.209
148.251.237.219
149.28.58.137
149.28.170.126
149.28.212.142
149.56.22.133
149.56.38.170
149.56.44.47
149.56.45.200
149.56.126.142
149.56.130.187
149.56.185.255
149.88.102.100
149.102.2.73
149.102.128.242
149.102.129.11
149.102.132.21
149.102.145.222
149.102.155.205
149.102.255.213
149.143.100.71
149.143.101.221
149.154.152.121
149.154.154.155
149.154.157.80
149.154.159.87
149.154.159.177
149.202.79.101
149.202.79.129
149.202.84.199
149.210.164.228
149.210.248.195
149.248.54.124
150.43.248.24
150.136.111.138
150.136.127.131
150.136.142.129
150.136.154.7
150.136.171.160
150.221.28.106
150.230.10.235
150.230.12.55
150.230.20.28
150.230.39.121
150.230.47.73
150.230.253.242
151.30.36.204
151.45.5.118
151.49.58.251
151.51.162.164
151.67.181.238
151.71.90.205
151.80.32.172
151.80.41.7
151.80.148.159
151.95.158.18
151.115.51.229
151.115.74.228
151.115.77.49
151.189.64.113
151.196.45.212
151.226.198.228
151.236.16.71
151.237.82.153
152.44.42.95
152.53.0.121
152.53.15.127
152.53.15.144
152.53.15.246
152.53.17.83
152.53.18.94
152.53.18.185
152.53.18.201
152.53.19.3
152.53.32.145
152.53.35.204
152.67.71.206
152.67.77.101
152.67.84.62
152.67.108.225
152.67.112.12
152.67.219.161
152.67.230.135
152.69.170.253
152.69.198.49
152.70.51.137
152.70.132.189
152.70.140.84
152.70.165.114
152.70.175.13
152.86.13.182
152.89.92.206
152.89.104.58
152.89.106.43
152.89.106.73
152.89.107.62
152.89.107.208
152.89.170.34
152.89.170.55
152.89.170.96
152.89.170.188
152.89.170.201
152.89.233.169
152.89.239.122
152.89.244.111
152.89.254.46
153.92.221.237
153.120.42.137
153.126.128.94
154.16.116.61
154.26.128.243
154.53.164.140
155.4.82.81
155.4.142.33
155.138.135.131
155.138.194.213
155.138.255.113
155.248.193.178
155.248.194.143
155.248.224.64
155.248.227.210
155.254.60.103
155.254.60.194
156.146.63.143
156.146.63.183
157.90.26.99
157.90.27.91
157.90.77.166
157.90.92.115
157.90.112.145
157.90.131.201
157.90.183.103
157.90.212.53
157.90.250.217
157.230.112.120
157.245.84.78
157.245.96.142
157.245.184.13
158.51.121.164
158.51.125.98
158.58.173.78
158.69.48.49
158.69.187.63
158.69.201.47
158.69.204.36
158.69.205.92
158.69.205.247
158.69.207.216
158.101.103.203
158.101.146.45
158.101.146.240
158.101.163.78
158.101.203.38
158.101.204.117
158.101.206.214
158.140.230.233
158.174.112.253
158.174.145.139
158.178.202.50
158.180.20.125
158.180.25.76
158.220.80.216
158.220.81.45
158.220.81.47
158.220.81.78
158.220.85.43
158.220.100.158
158.247.220.29
158.247.225.136
158.255.212.178
158.255.215.41
159.2.191.175
159.65.14.241
159.65.125.72
159.65.178.246
159.69.11.74
159.69.12.128
159.69.21.196
159.69.36.3
159.69.71.58
159.69.71.228
159.69.138.31
159.69.152.157
159.69.153.203
159.69.156.131
159.69.202.246
159.69.212.6
159.89.87.126
159.89.143.47
159.89.236.228
159.196.89.240
159.196.157.99
159.196.251.45
159.203.29.240
160.16.122.68
160.119.249.24
160.119.249.240
160.119.253.103
160.119.253.114
160.251.46.239
160.251.138.244
160.251.175.176
160.251.204.200
161.34.68.10
161.35.65.38
161.35.65.110
161.35.73.14
161.53.160.104
161.97.67.106
161.97.132.254
161.97.184.88
162.19.171.180
162.19.204.163
162.19.242.17
162.19.244.234
162.19.246.43
162.19.246.63
162.55.48.243
162.55.58.248
162.55.131.67
162.55.134.240
162.55.163.223
162.55.177.164
162.83.219.229
162.157.210.69
162.192.36.227
162.210.196.17
162.226.56.70
162.231.171.29
162.237.207.53
162.243.168.143
162.243.173.63
162.247.72.192
162.247.72.199
162.247.74.7
162.247.74.27
162.247.74.74
162.247.74.200
162.247.74.201
162.247.74.202
162.247.74.204
162.247.74.206
162.247.74.213
162.247.74.216
162.247.74.217
162.247.153.131
162.250.191.15
162.251.5.152
162.251.116.10
162.251.116.18
162.251.116.26
162.251.116.34
162.251.116.50
162.251.116.82
162.251.116.106
162.251.117.10
162.251.119.2
162.251.119.10
162.251.166.210
162.255.84.47
163.5.121.253
163.5.143.76
163.5.159.230
163.172.11.88
163.172.13.237
163.172.39.134
163.172.43.171
163.172.45.4
163.172.45.102
163.172.53.201
163.172.70.175
163.172.76.56
163.172.93.6
163.172.151.206
163.172.182.26
163.172.211.128
164.68.106.94
164.68.107.222
164.68.113.149
164.68.113.187
164.68.121.40
164.90.45.197
164.90.148.60
164.90.152.167
164.92.72.234
164.92.73.48
164.132.23.184
164.132.75.248
164.132.172.209
164.132.226.30
164.215.103.126
165.22.191.211
165.22.230.164
165.22.239.19
165.73.242.163
165.140.117.247
165.227.34.240
165.227.34.241
165.227.35.102
165.227.47.169
165.227.180.118
166.1.173.49
166.70.207.2
166.84.6.10
167.71.86.85
167.71.138.200
167.71.143.101
167.86.66.168
167.86.74.109
167.86.85.117
167.86.112.42
167.86.122.9
167.86.127.130
167.99.136.66
167.99.193.203
167.99.208.41
167.114.36.23
167.172.200.8
167.179.90.242
167.179.99.77
167.235.15.221
167.235.61.89
167.235.74.7
167.235.112.134
167.235.133.213
167.235.177.161
167.235.249.14
167.248.162.156
168.100.9.173
168.103.87.18
168.119.35.219
168.119.62.31
168.138.150.255
168.181.185.147
170.39.49.168
170.64.147.54
170.64.175.63
170.64.190.214
170.64.208.4
170.64.216.180
170.64.218.3
170.133.2.81
170.176.232.159
170.187.164.35
171.25.193.9
171.25.193.20
171.25.193.25
171.25.193.77
171.25.193.78
171.25.193.79
171.25.193.80
171.25.193.234
171.25.193.235
171.66.3.87
172.0.47.78
172.81.131.87
172.81.131.139
172.81.131.156
172.81.132.94
172.81.132.242
172.86.74.6
172.93.102.139
172.96.172.157
172.98.12.49
172.98.195.205
172.104.12.69
172.104.143.42
172.104.148.219
172.104.208.190
172.104.214.41
172.104.226.248
172.105.6.34
172.105.35.201
172.105.47.96
172.105.53.186
172.105.65.236
172.105.68.180
172.105.88.119
172.105.199.155
172.105.219.152
172.105.237.238
172.105.242.117
172.221.148.156
172.232.24.166
172.232.158.110
172.232.161.205
172.232.162.176
172.232.184.34
172.233.16.74
172.233.40.110
172.233.50.150
172.233.91.158
172.233.108.23
172.233.129.176
172.233.152.242
172.233.154.111
172.233.160.133
172.233.175.219
172.233.202.49
172.234.18.228
172.234.20.5
172.234.30.98
172.234.107.195
172.241.23.114
172.241.140.247
172.241.140.249
172.241.224.145
172.241.229.13
172.241.251.132
172.245.23.98
172.245.55.112
172.245.106.179
172.245.134.171
172.245.174.201
172.245.214.70
173.52.94.197
173.73.134.86
173.79.168.55
173.88.182.35
173.164.132.129
173.212.200.241
173.212.225.208
173.212.231.228
173.212.236.169
173.212.242.110
173.212.254.192
173.230.128.232
173.230.129.207
173.230.137.91
173.230.153.109
173.230.154.90
173.232.194.18
173.232.194.19
173.232.194.20
173.232.194.21
173.232.195.137
173.232.195.144
173.232.195.146
173.249.8.113
173.249.55.230
173.249.57.253
173.255.228.134
173.255.236.85
173.255.245.116
173.255.255.215
174.20.55.237
174.20.225.36
174.21.166.25
174.34.132.72
174.45.64.77
174.53.83.31
174.53.159.181
174.89.234.81
174.92.39.131
174.95.6.236
174.107.186.25
174.126.210.214
174.128.250.163
174.128.250.164
174.128.250.165
174.128.250.166
174.182.41.185
175.212.206.103
175.214.127.6
176.9.23.30
176.9.38.121
176.9.39.196
176.9.52.214
176.9.57.157
176.9.61.78
176.9.63.240
176.9.85.41
176.9.123.122
176.9.161.22
176.10.107.180
176.10.232.207
176.31.35.149
176.58.96.113
176.58.100.98
176.58.101.9
176.58.106.151
176.58.121.159
176.58.121.177
176.74.222.61
176.95.148.103
176.95.237.39
176.96.137.196
176.96.137.199
176.97.70.16
176.98.22.123
176.103.63.227
176.107.176.31
176.117.59.117
176.118.193.33
176.118.193.106
176.119.76.35
176.119.203.63
176.119.203.128
176.121.81.51
176.123.1.67
176.123.1.144
176.123.2.99
176.123.3.252
176.123.4.96
176.123.7.172
176.123.8.5
176.126.253.190
176.135.23.3
176.150.6.215
176.198.159.33
176.223.141.106
177.100.221.219
177.104.76.97
177.104.142.225
177.136.102.49
178.6.48.101
178.17.170.23
178.17.170.168
178.17.170.172
178.17.170.184
178.17.170.254
178.17.171.102
178.17.171.113
178.17.173.26
178.17.174.14
178.17.174.164
178.17.174.198
178.17.174.239
178.18.245.109
178.19.96.125
178.20.55.16
178.20.55.182
178.32.41.33
178.32.47.60
178.32.60.161
178.32.136.221
178.32.139.118
178.32.193.196
178.32.220.61
178.33.36.64
178.33.253.170
178.62.24.212
178.62.93.188
178.62.94.243
178.62.222.199
178.63.3.190
178.63.19.126
178.63.40.99
178.63.41.183
178.63.43.153
178.63.52.50
178.63.68.78
178.63.116.157
178.78.241.178
178.79.134.196
178.79.154.219
178.79.161.177
178.79.163.170
178.79.183.144
178.85.20.176
178.128.32.152
178.128.159.121
178.128.241.183
178.132.0.6
178.158.176.56
178.162.154.226
178.162.194.210
178.162.209.56
178.162.221.18
178.165.126.221
178.170.10.3
178.170.10.39
178.170.14.10
178.175.128.178
178.175.131.141
178.175.142.26
178.175.148.209
178.175.148.218
178.175.148.236
178.199.15.192
178.200.140.242
178.200.156.54
178.200.168.70
178.201.8.36
178.202.85.152
178.202.108.105
178.203.122.107
178.209.46.173
178.211.147.22
178.215.228.25
178.215.228.78
178.218.144.18
178.218.144.51
178.218.144.64
178.218.144.96
178.218.144.99
178.218.144.113
178.218.162.62
178.236.237.63
178.236.247.122
178.239.221.161
178.248.249.172
178.254.12.152
178.254.18.25
178.254.18.30
178.254.20.38
178.254.23.189
178.254.24.208
178.254.25.106
178.254.26.126
178.254.29.190
178.254.32.134
178.254.35.229
178.254.36.62
178.254.36.99
178.254.37.96
178.254.38.159
178.254.41.111
178.254.43.240
178.254.44.54
178.254.44.163
178.254.45.64
178.254.45.235
178.255.220.24
179.43.128.16
179.43.134.188
179.43.134.242
179.43.139.212
179.43.139.213
179.43.141.195
179.43.158.176
179.43.158.213
179.43.159.78
179.43.159.194
179.43.159.195
179.43.159.196
179.43.159.197
179.43.159.198
179.43.159.199
179.43.159.200
179.43.159.201
179.43.160.164
179.43.167.205
179.43.182.16
179.43.182.33
179.43.182.58
179.43.182.217
179.43.182.232
179.43.182.235
179.43.182.252
179.48.251.188
179.50.213.11
179.61.251.32
179.61.251.45
179.61.251.86
179.61.251.251
179.108.106.120
180.149.44.156
180.150.77.240
180.150.226.99
181.43.109.90
181.47.221.134
181.128.99.170
181.214.58.40
181.214.58.197
181.214.58.205
181.214.99.212
181.214.147.110
181.215.32.131
181.215.32.138
181.215.32.162
181.215.226.65
184.59.40.139
184.65.64.133
184.82.64.121
184.99.102.136
184.105.48.40
184.105.221.248
184.166.173.242
184.174.38.53
184.187.107.50
185.2.195.157
185.4.132.148
185.4.134.104
185.5.38.80
185.5.233.141
185.7.33.120
185.7.33.146
185.8.104.177
185.8.165.248
185.10.16.41
185.10.68.215
185.14.30.57
185.14.97.37
185.15.92.64
185.15.92.66
185.16.60.194
185.16.61.41
185.16.61.178
185.17.136.101
185.21.100.50
185.21.216.197
185.21.217.32
185.22.154.41
185.22.155.168
185.22.172.106
185.22.173.21
185.22.174.119
185.26.156.186
185.32.183.18
185.32.183.225
185.32.222.237
185.34.33.2
185.35.200.250
185.35.202.222
185.36.143.114
185.38.13.37
185.38.175.133
185.39.207.10
185.39.207.17
185.39.207.30
185.39.207.83
185.40.199.126
185.41.154.130
185.42.170.203
185.47.255.59
185.52.1.105
185.53.46.181
185.56.83.83
185.56.107.21
185.56.107.25
185.56.171.94
185.57.8.43
185.66.91.18
185.66.109.249
185.66.141.125
185.67.45.76
185.67.45.99
185.67.45.100
185.67.82.114
185.69.54.127
185.70.185.146
185.73.211.9
185.73.220.8
185.73.240.205
185.81.29.132
185.81.109.2
185.81.115.120
185.82.126.13
185.82.126.172
185.82.126.230
185.82.127.213
185.82.216.211
185.82.217.49
185.82.219.85
185.82.219.109
185.83.217.21
185.84.31.254
185.84.81.240
185.86.148.90
185.87.50.180
185.88.140.53
185.90.61.174
185.91.69.218
185.91.127.132
185.92.221.176
185.92.221.195
185.93.173.221
185.94.29.93
185.94.29.162
185.100.85.22
185.100.85.23
185.100.85.24
185.100.85.25
185.100.85.132
185.100.86.70
185.100.87.41
185.100.87.61
185.100.87.136
185.100.87.139
185.100.87.141
185.100.87.174
185.100.87.192
185.100.87.250
185.100.87.253
185.100.233.160
185.101.139.172
185.101.174.139
185.103.110.14
185.103.110.21
185.103.110.65
185.103.110.86
185.103.135.19
185.103.135.20
185.103.135.51
185.104.142.231
185.104.194.129
185.106.94.190
185.106.94.195
185.106.123.50
185.107.56.230
185.107.70.56
185.109.91.126
185.112.144.109
185.112.144.198
185.112.146.167
185.112.146.168
185.112.146.188
185.112.146.205
185.112.147.85
185.113.128.30
185.117.82.68
185.117.82.71
185.117.118.142
185.119.117.140
185.119.117.148
185.119.117.162
185.119.117.229
185.119.119.63
185.120.145.83
185.123.53.42
185.124.240.98
185.124.240.109
185.126.117.21
185.126.117.202
185.129.61.1
185.129.61.2
185.129.61.3
185.129.61.4
185.129.61.5
185.129.61.6
185.129.61.7
185.129.61.8
185.129.61.9
185.129.61.10
185.129.62.62
185.129.62.63
185.130.44.43
185.130.44.59
185.130.44.108
185.130.45.92
185.130.47.58
185.132.40.230
185.133.210.207
185.140.209.158
185.141.56.26
185.141.56.27
185.141.56.28
185.141.56.29
185.141.57.2
185.141.57.3
185.141.57.4
185.141.57.5
185.141.57.6
185.141.147.128
185.141.147.129
185.142.208.226
185.142.238.67
185.142.239.49
185.142.239.205
185.146.232.234
185.146.232.243
185.147.11.78
185.148.1.169
185.148.1.184
185.148.1.195
185.148.3.29
185.148.3.38
185.148.3.153
185.148.214.170
185.150.189.243
185.153.197.227
185.153.219.46
185.154.110.17
185.154.110.142
185.155.223.9
185.155.223.130
185.157.161.4
185.157.162.123
185.162.249.126
185.162.250.173
185.162.251.94
185.162.251.122
185.162.251.135
185.162.251.249
185.163.44.136
185.163.45.212
185.163.45.247
185.163.45.253
185.163.46.83
185.163.46.91
185.163.204.17
185.163.204.43
185.164.138.198
185.164.138.211
185.165.169.42
185.165.169.138
185.165.169.239
185.165.171.84
185.165.190.111
185.170.114.25
185.173.93.47
185.173.200.125
185.174.135.11
185.175.56.120
185.175.56.253
185.175.59.186
185.175.59.218
185.175.143.90
185.175.158.198
185.177.127.34
185.177.151.33
185.177.151.42
185.177.206.66
185.177.206.67
185.177.206.68
185.177.206.69
185.177.206.70
185.177.206.71
185.177.206.72
185.177.206.73
185.177.206.74
185.177.229.15
185.177.229.16
185.177.229.20
185.181.60.135
185.181.60.181
185.181.61.18
185.181.61.115
185.181.61.142
185.181.229.69
185.181.229.77
185.181.229.91
185.183.157.214
185.183.159.40
185.183.159.143
185.183.159.173
185.183.194.90
185.183.195.1
185.187.170.196
185.189.125.22
185.189.149.188
185.189.183.143
185.190.176.27
185.191.204.254
185.193.52.180
185.193.66.127
185.193.125.208
185.193.158.126
185.194.57.75
185.194.142.73
185.194.239.11
185.195.71.2
185.195.71.3
185.195.71.4
185.195.71.5
185.195.71.6
185.195.71.7
185.195.71.8
185.195.71.9
185.195.71.10
185.195.71.11
185.195.71.12
185.195.71.244
185.195.237.116
185.195.237.238
185.196.220.82
185.196.220.204
185.198.26.149
185.198.56.195
185.202.93.106
185.204.1.83
185.204.1.84
185.205.127.233
185.206.146.238
185.207.105.173
185.207.106.241
185.207.107.98
185.207.107.130
185.207.107.216
185.210.170.49
185.213.175.236
185.216.35.222
185.216.68.40
185.216.68.81
185.216.68.108
185.216.68.128
185.216.68.160
185.216.176.216
185.216.179.206
185.216.214.103
185.217.0.85
185.217.95.25
185.218.88.66
185.219.132.36
185.219.132.43
185.219.132.161
185.219.142.126
185.220.100.240
185.220.100.241
185.220.100.242
185.220.100.243
185.220.100.244
185.220.100.245
185.220.100.246
185.220.100.247
185.220.100.248
185.220.100.249
185.220.100.250
185.220.100.251
185.220.100.252
185.220.100.253
185.220.100.254
185.220.100.255
185.220.101.0
185.220.101.1
185.220.101.2
185.220.101.3
185.220.101.4
185.220.101.5
185.220.101.6
185.220.101.7
185.220.101.8
185.220.101.9
185.220.101.10
185.220.101.11
185.220.101.12
185.220.101.13
185.220.101.14
185.220.101.15
185.220.101.16
185.220.101.17
185.220.101.18
185.220.101.19
185.220.101.20
185.220.101.21
185.220.101.22
185.220.101.23
185.220.101.24
185.220.101.25
185.220.101.26
185.220.101.27
185.220.101.28
185.220.101.29
185.220.101.30
185.220.101.31
185.220.101.32
185.220.101.33
185.220.101.34
185.220.101.35
185.220.101.36
185.220.101.37
185.220.101.38
185.220.101.39
185.220.101.40
185.220.101.41
185.220.101.42
185.220.101.43
185.220.101.44
185.220.101.45
185.220.101.46
185.220.101.47
185.220.101.48
185.220.101.49
185.220.101.50
185.220.101.51
185.220.101.52
185.220.101.53
185.220.101.54
185.220.101.55
185.220.101.56
185.220.101.57
185.220.101.58
185.220.101.59
185.220.101.60
185.220.101.61
185.220.101.62
185.220.101.63
185.220.101.64
185.220.101.65
185.220.101.66
185.220.101.67
185.220.101.68
185.220.101.69
185.220.101.70
185.220.101.71
185.220.101.72
185.220.101.73
185.220.101.74
185.220.101.75
185.220.101.76
185.220.101.77
185.220.101.78
185.220.101.79
185.220.101.80
185.220.101.81
185.220.101.82
185.220.101.83
185.220.101.84
185.220.101.85
185.220.101.86
185.220.101.87
185.220.101.88
185.220.101.89
185.220.101.90
185.220.101.96
185.220.101.97
185.220.101.98
185.220.101.99
185.220.101.100
185.220.101.101
185.220.101.102
185.220.101.103
185.220.101.104
185.220.101.105
185.220.101.106
185.220.101.107
185.220.101.108
185.220.101.109
185.220.101.110
185.220.101.128
185.220.101.129
185.220.101.130
185.220.101.131
185.220.101.132
185.220.101.133
185.220.101.134
185.220.101.135
185.220.101.136
185.220.101.137
185.220.101.138
185.220.101.139
185.220.101.140
185.220.101.141
185.220.101.142
185.220.101.143
185.220.101.144
185.220.101.145
185.220.101.146
185.220.101.147
185.220.101.148
185.220.101.149
185.220.101.150
185.220.101.151
185.220.101.152
185.220.101.153
185.220.101.154
185.220.101.155
185.220.101.156
185.220.101.157
185.220.101.158
185.220.101.159
185.220.101.160
185.220.101.161
185.220.101.162
185.220.101.163
185.220.101.164
185.220.101.165
185.220.101.166
185.220.101.167
185.220.101.168
185.220.101.169
185.220.101.170
185.220.101.171
185.220.101.172
185.220.101.173
185.220.101.174
185.220.101.175
185.220.101.176
185.220.101.177
185.220.101.178
185.220.101.179
185.220.101.180
185.220.101.181
185.220.101.182
185.220.101.183
185.220.101.184
185.220.101.185
185.220.101.186
185.220.101.187
185.220.101.188
185.220.101.189
185.220.101.190
185.220.101.191
185.220.101.192
185.220.101.193
185.220.101.194
185.220.101.195
185.220.101.196
185.220.101.197
185.220.101.198
185.220.101.199
185.220.101.200
185.220.101.201
185.220.101.202
185.220.101.203
185.220.101.204
185.220.101.205
185.220.101.206
185.220.101.207
185.220.101.208
185.220.101.209
185.220.101.210
185.220.101.211
185.220.103.4
185.220.103.5
185.220.103.6
185.220.103.7
185.220.103.8
185.220.103.9
185.223.53.3
185.225.16.150
185.225.17.105
185.225.18.102
185.225.19.159
185.225.68.85
185.225.68.98
185.225.69.59
185.225.69.90
185.225.69.91
185.225.69.203
185.225.69.205
185.225.69.232
185.225.87.2
185.225.114.22
185.225.114.53
185.225.114.92
185.225.210.34
185.225.210.87
185.227.68.78
185.227.82.43
185.227.82.63
185.227.134.106
185.227.135.208
185.228.138.252
185.228.139.102
185.229.90.81
185.230.163.162
185.231.207.217
185.232.68.32
185.232.68.39
185.232.69.10
185.233.100.23
185.233.104.172
185.233.106.34
185.234.131.80
185.235.146.29
185.236.228.89
185.237.100.26
185.237.253.222
185.238.129.9
185.238.129.76
185.240.242.76
185.241.5.229
185.241.208.54
185.241.208.71
185.241.208.115
185.241.208.196
185.241.208.202
185.241.208.204
185.241.208.206
185.241.208.212
185.241.208.232
185.241.208.236
185.241.208.243
185.243.10.170
185.243.20.70
185.243.23.81
185.243.218.35
185.243.218.41
185.243.218.46
185.243.218.61
185.243.218.89
185.243.218.95
185.243.218.110
185.243.218.202
185.243.218.204
185.244.24.40
185.244.24.41
185.244.24.42
185.244.24.43
185.244.24.44
185.244.129.163
185.244.150.8
185.244.192.175
185.244.192.184
185.244.194.156
185.244.213.5
185.246.86.197
185.246.128.161
185.246.182.197
185.246.188.67
185.246.188.73
185.246.188.74
185.246.188.114
185.246.188.149
185.246.189.99
185.247.184.33
185.247.184.105
185.248.151.238
185.248.163.117
185.250.36.209
185.250.148.190
185.252.232.218
185.254.96.139
185.254.99.26
186.194.190.30
186.233.185.59
186.233.185.61
187.131.66.149
187.146.153.12
187.207.139.245
187.255.26.160
188.40.41.115
188.40.99.69
188.40.128.246
188.40.142.18
188.40.162.203
188.40.162.205
188.40.162.206
188.40.220.196
188.40.254.242
188.40.254.245
188.40.254.246
188.40.255.114
188.60.49.84
188.61.162.10
188.63.254.7
188.68.33.200
188.68.34.113
188.68.36.209
188.68.38.76
188.68.40.180
188.68.41.54
188.68.41.191
188.68.43.192
188.68.45.72
188.68.46.164
188.68.46.245
188.68.49.235
188.68.50.76
188.68.50.174
188.68.52.231
188.68.56.100
188.68.56.181
188.68.58.105
188.80.9.69
188.93.233.49
188.94.124.99
188.112.180.135
188.115.169.153
188.116.27.219
188.126.83.38
188.127.197.42
188.136.248.39
188.141.60.190
188.148.245.91
188.150.76.252
188.151.237.158
188.154.6.144
188.154.10.211
188.154.159.130
188.155.193.103
188.159.241.197
188.165.26.13
188.165.131.206
188.165.136.205
188.165.136.211
188.165.200.97
188.165.236.18
188.166.87.136
188.166.92.179
188.172.228.88
188.172.229.15
188.190.109.250
188.193.173.26
188.208.141.226
188.213.31.125
188.213.92.88
188.213.94.245
188.213.95.146
188.214.30.66
188.214.104.21
188.214.132.18
188.214.132.49
188.214.157.193
188.241.120.4
188.244.106.81
188.246.204.67
189.147.236.19
189.165.152.200
190.2.133.94
190.2.133.227
190.2.154.253
190.45.171.154
190.103.179.98
190.113.107.158
190.120.229.98
190.211.254.76
190.211.254.97
190.211.254.101
190.211.254.182
190.211.254.192
190.211.254.210
191.96.165.34
191.96.208.198
191.101.59.197
191.101.206.19
191.113.123.160
191.252.220.31
192.3.105.226
192.3.105.227
192.3.105.228
192.3.105.229
192.3.173.87
192.3.228.140
192.9.137.61
192.9.235.157
192.9.249.147
192.18.128.35
192.18.144.19
192.18.159.101
192.24.207.200
192.34.87.86
192.36.38.33
192.42.113.101
192.42.113.102
192.42.115.101
192.42.115.102
192.42.115.103
192.42.116.13
192.42.116.14
192.42.116.15
192.42.116.17
192.42.116.18
192.42.116.19
192.42.116.20
192.42.116.22
192.42.116.23
192.42.116.24
192.42.116.25
192.42.116.26
192.42.116.27
192.42.116.28
192.42.116.173
192.42.116.174
192.42.116.175
192.42.116.176
192.42.116.177
192.42.116.178
192.42.116.179
192.42.116.180
192.42.116.181
192.42.116.182
192.42.116.183
192.42.116.184
192.42.116.185
192.42.116.186
192.42.116.187
192.42.116.188
192.42.116.189
192.42.116.191
192.42.116.192
192.42.116.193
192.42.116.194
192.42.116.195
192.42.116.196
192.42.116.197
192.42.116.198
192.42.116.199
192.42.116.200
192.42.116.201
192.42.116.202
192.42.116.203
192.42.116.204
192.42.116.208
192.42.116.209
192.42.116.210
192.42.116.211
192.42.116.212
192.42.116.213
192.42.116.214
192.42.116.215
192.42.116.216
192.42.116.217
192.42.116.218
192.42.116.219
192.42.116.220
192.42.116.221
192.42.253.215
192.46.210.223
192.46.227.185
192.68.11.203
192.71.245.137
192.80.109.212
192.81.134.35
192.87.28.28
192.87.28.82
192.95.29.105
192.99.69.17
192.99.152.50
192.99.154.98
192.99.168.180
192.99.228.114
192.108.48.150
192.119.108.114
192.121.44.26
192.121.44.27
192.121.44.233
192.121.108.236
192.121.108.237
192.145.46.247
192.158.224.175
192.160.102.164
192.160.102.165
192.160.102.166
192.160.102.168
192.160.102.169
192.160.102.170
192.183.195.198
192.184.1.254
192.184.93.11
192.184.177.72
192.186.99.197
192.210.175.137
192.210.179.137
192.210.206.188
192.210.233.239
192.210.255.181
192.211.48.226
192.227.186.86
192.227.213.246
192.234.196.169
193.1.12.167
193.11.114.43
193.11.114.45
193.11.114.46
193.11.164.243
193.11.166.196
193.23.244.244
193.24.209.157
193.26.115.18
193.26.115.43
193.26.115.61
193.26.156.86
193.26.158.214
193.29.14.151
193.30.120.139
193.30.123.113
193.31.24.60
193.31.26.148
193.31.27.42
193.31.27.59
193.31.27.109
193.31.27.127
193.32.87.151
193.35.18.49
193.35.18.77
193.35.18.105
193.37.252.51
193.38.34.13
193.41.226.117
193.41.226.147
193.41.226.216
193.42.11.238
193.42.36.82
193.56.240.157
193.63.58.76
193.69.119.92
193.70.112.165
193.93.13.174
193.104.220.35
193.105.134.16
193.105.134.18
193.105.134.150
193.105.134.155
193.105.134.186
193.105.134.187
193.107.109.209
193.108.117.103
193.109.69.54
193.109.120.3
193.111.26.37
193.111.115.210
193.122.142.28
193.122.157.186
193.123.83.214
193.124.46.211
193.124.176.104
193.135.10.219
193.142.30.121
193.142.146.43
193.142.146.239
193.142.147.198
193.142.147.204
193.148.18.122
193.168.141.134
193.168.141.245
193.168.143.113
193.168.143.166
193.169.239.166
193.182.111.41
193.182.111.42
193.182.111.43
193.182.111.131
193.182.111.132
193.182.111.133
193.182.111.182
193.183.98.224
193.187.91.79
193.189.100.194
193.189.100.195
193.189.100.196
193.189.100.197
193.189.100.198
193.189.100.199
193.189.100.200
193.189.100.201
193.189.100.202
193.189.100.203
193.189.100.204
193.189.100.205
193.189.100.206
193.190.168.53
193.200.17.56
193.200.17.110
193.200.241.189
193.203.163.182
193.203.167.183
193.218.118.84
193.218.118.88
193.218.118.89
193.218.118.91
193.218.118.117
193.218.118.133
193.218.118.180
193.218.118.181
193.218.118.182
193.218.118.188
193.218.118.202
193.219.97.25
193.226.13.80
193.226.78.213
193.228.128.87
193.228.199.148
193.233.133.109
193.233.202.71
193.237.217.92
193.239.86.133
193.239.86.147
193.239.232.102
193.239.232.230
194.4.71.60
194.5.250.250
194.9.172.80
194.9.172.148
194.13.81.26
194.13.83.131
194.15.112.133
194.15.113.118
194.15.115.91
194.15.115.92
194.15.115.93
194.15.115.94
194.15.115.212
194.26.192.64
194.26.192.77
194.28.112.157
194.32.107.206
194.34.132.51
194.34.132.169
194.34.134.13
194.35.184.95
194.36.144.87
194.36.146.145
194.36.147.51
194.36.147.125
194.39.207.224
194.55.13.50
194.59.206.96
194.61.121.11
194.62.187.100
194.67.196.19
194.76.227.150
194.76.227.152
194.87.31.104
194.88.105.13
194.88.105.30
194.88.106.13
194.104.148.94
194.124.33.143
194.126.173.158
194.126.174.190
194.147.140.101
194.147.140.102
194.147.140.106
194.147.140.107
194.163.141.141
194.163.147.235
194.163.157.49
194.163.178.164
194.163.182.63
194.164.16.95
194.164.22.145
194.164.59.227
194.164.60.113
194.164.122.21
194.164.197.45
194.180.174.45
194.180.174.73
194.180.188.174
194.180.191.93
194.182.179.34
194.187.251.163
194.195.115.114
194.195.120.132
194.195.123.250
194.233.67.19
194.233.70.34
194.233.75.85
194.233.75.119
194.233.82.221
194.233.93.135
194.233.174.56
195.13.60.202
195.15.242.29
195.15.242.99
195.15.242.113
195.15.243.70
195.20.17.19
195.20.234.197
195.20.236.110
195.20.255.172
195.34.103.142
195.50.212.15
195.52.16.189
195.52.131.145
195.58.58.72
195.80.151.30
195.88.74.206
195.88.75.18
195.90.201.209
195.90.210.122
195.90.210.137
195.90.211.36
195.90.211.87
195.90.215.45
195.90.215.149
195.90.215.218
195.90.217.16
195.90.218.46
195.90.218.160
195.90.223.138
195.117.36.125
195.122.181.242
195.122.183.2
195.122.183.170
195.122.183.171
195.123.212.113
195.123.228.129
195.123.238.164
195.123.245.141
195.123.247.209
195.128.101.106
195.128.102.56
195.128.102.92
195.133.52.5
195.133.52.115
195.133.52.159
195.133.53.215
195.133.53.229
195.154.28.247
195.154.33.85
195.154.104.174
195.154.112.118
195.154.168.209
195.160.220.104
195.176.3.19
195.176.3.20
195.176.3.23
195.176.3.24
195.177.252.5
195.201.7.164
195.201.9.37
195.201.23.1
195.201.34.213
195.201.62.78
195.201.63.203
195.201.94.113
195.201.103.59
195.201.147.230
195.201.174.108
195.201.199.223
195.201.226.70
195.201.226.88
195.201.235.37
195.205.30.250
195.230.23.185
195.230.23.248
195.230.168.83
195.234.62.127
195.234.62.192
195.234.152.86
195.242.111.234
198.12.71.224
198.12.80.138
198.12.97.252
198.12.111.102
198.12.116.70
198.16.70.10
198.23.133.132
198.23.133.146
198.23.174.106
198.23.211.171
198.23.235.168
198.24.164.98
198.24.168.226
198.27.80.188
198.46.131.154
198.46.131.155
198.46.131.156
198.46.131.157
198.46.131.158
198.46.166.157
198.46.176.172
198.46.215.32
198.50.119.130
198.50.128.237
198.50.175.148
198.50.191.95
198.50.223.16
198.58.107.53
198.71.53.137
198.72.123.109
198.72.127.222
198.74.57.57
198.74.58.16
198.74.61.51
198.84.184.76
198.84.192.247
198.96.155.3
198.96.155.9
198.98.48.20
198.98.48.33
198.98.48.192
198.98.50.160
198.98.50.199
198.98.51.189
198.98.51.249
198.98.52.83
198.98.53.136
198.98.54.49
198.98.55.160
198.98.57.25
198.98.57.55
198.98.58.160
198.98.59.102
198.98.60.90
198.98.61.76
198.98.62.56
198.100.153.7
198.100.153.18
198.140.141.51
198.140.141.52
198.144.178.163
198.144.184.33
198.167.206.144
198.167.206.147
198.167.206.220
198.177.125.14
198.180.150.9
198.199.92.217
198.211.103.103
198.211.105.236
198.211.125.179
198.244.188.169
198.244.212.57
198.244.233.55
198.251.67.184
198.251.68.144
198.251.76.239
198.251.78.251
198.251.84.163
198.251.84.237
198.251.88.18
198.251.89.96
198.255.21.2
199.58.81.140
199.58.103.177
199.85.209.100
199.85.209.102
199.85.209.103
199.85.209.104
199.85.209.105
199.85.209.106
199.170.132.80
199.184.215.11
199.184.246.250
199.193.115.2
199.195.248.172
199.195.250.165
199.195.251.54
199.195.251.78
199.195.251.119
199.195.253.124
199.195.253.156
199.195.253.180
199.195.253.247
199.241.137.60
200.122.181.2
200.122.181.78
202.55.71.41
202.59.9.238
202.61.193.116
202.61.196.212
202.61.197.87
202.61.205.33
202.61.224.170
202.61.224.179
202.61.226.98
202.61.226.150
202.61.236.66
202.61.237.56
202.61.248.18
202.61.252.121
202.61.252.156
202.69.76.36
202.91.32.7
202.94.246.210
202.125.83.141
202.125.83.179
202.125.83.186
202.129.16.104
202.169.99.195
202.179.230.100
202.182.99.129
203.12.12.233
203.23.128.239
203.51.38.33
203.76.225.173
203.122.194.115
203.153.77.84
204.8.96.64
204.8.96.65
204.8.96.66
204.8.96.67
204.8.96.68
204.8.96.69
204.8.96.70
204.8.96.71
204.8.96.72
204.8.96.73
204.8.96.74
204.8.96.75
204.8.96.76
204.8.96.77
204.8.96.78
204.8.96.79
204.8.96.80
204.8.96.81
204.8.96.82
204.8.96.83
204.8.96.84
204.8.96.85
204.8.96.86
204.8.96.87
204.8.96.88
204.8.96.89
204.8.96.100
204.8.96.101
204.8.96.102
204.8.96.103
204.8.96.104
204.8.96.105
204.8.96.106
204.8.96.107
204.8.96.108
204.8.96.109
204.8.96.110
204.8.96.111
204.8.96.112
204.8.96.113
204.8.96.114
204.8.96.115
204.8.96.116
204.8.96.117
204.8.96.118
204.8.96.119
204.8.96.120
204.8.96.121
204.8.96.122
204.8.96.123
204.8.96.140
204.8.96.141
204.8.96.142
204.8.96.143
204.8.96.144
204.8.96.145
204.8.96.146
204.8.96.147
204.8.96.148
204.8.96.149
204.8.96.150
204.8.96.151
204.8.96.152
204.8.96.153
204.8.96.154
204.8.96.155
204.8.96.156
204.8.96.157
204.8.96.158
204.8.96.159
204.8.96.160
204.8.96.161
204.8.96.162
204.8.96.163
204.8.96.164
204.8.96.165
204.8.96.166
204.8.96.167
204.8.96.168
204.8.96.169
204.8.96.170
204.8.96.171
204.8.96.172
204.8.96.173
204.8.96.174
204.8.96.175
204.8.96.176
204.8.96.177
204.8.96.178
204.8.96.179
204.8.96.180
204.8.96.181
204.8.96.182
204.8.96.183
204.8.96.184
204.8.96.185
204.8.96.186
204.8.96.187
204.8.96.188
204.8.96.189
204.8.98.85
204.8.156.142
204.12.251.85
204.13.154.155
204.13.164.118
204.85.191.7
204.85.191.8
204.85.191.9
204.111.176.108
204.137.14.60
204.137.14.69
204.137.14.92
204.137.14.104
204.137.14.105
204.137.14.106
204.144.222.250
204.194.29.4
205.185.113.66
205.185.113.180
205.185.116.34
205.185.117.149
205.185.117.232
205.185.119.35
205.185.119.222
205.185.121.159
205.185.121.170
205.185.123.93
205.185.124.120
205.185.124.164
205.185.124.176
205.185.124.189
205.185.124.193
205.185.125.239
206.55.74.1
206.75.30.189
206.81.31.249
206.168.240.163
206.168.240.205
206.188.196.176
206.189.8.227
206.189.148.213
206.198.210.210
206.217.136.47
206.217.139.100
206.237.98.52
207.55.47.26
207.81.13.91
207.90.194.2
207.127.92.63
207.127.93.212
207.127.93.255
207.127.94.135
207.134.205.114
207.148.26.28
207.153.2.192
207.153.49.56
207.174.40.194
207.180.192.66
207.180.213.181
207.180.216.146
207.180.221.220
207.180.234.231
207.188.147.4
207.192.70.250
207.216.59.159
207.216.170.204
207.229.65.155
207.244.78.230
207.246.71.148
208.38.228.104
208.38.243.113
208.59.51.181
208.65.84.97
208.65.87.230
208.67.104.129
208.70.148.69
208.72.154.158
208.73.102.153
208.81.129.145
208.87.135.131
208.109.189.114
208.113.128.210
208.113.128.254
208.113.133.68
208.113.200.33
208.113.200.37
208.115.216.54
208.115.218.134
208.115.230.19
208.115.230.116
208.115.230.231
208.115.233.159
208.115.245.76
209.14.69.62
209.35.32.109
209.38.204.47
209.38.212.221
209.38.212.249
209.51.188.48
209.58.145.210
209.58.160.138
209.58.180.90
209.58.180.236
209.90.224.5
209.97.130.15
209.114.126.200
209.114.126.201
209.114.126.202
209.126.4.123
209.126.103.140
209.127.116.162
209.127.117.90
209.127.119.162
209.133.193.6
209.133.196.18
209.133.196.22
209.133.206.38
209.141.32.198
209.141.32.241
209.141.36.7
209.141.38.110
209.141.39.104
209.141.46.203
209.141.50.178
209.141.51.30
209.141.51.180
209.141.51.217
209.141.52.110
209.141.54.168
209.141.54.203
209.141.55.26
209.141.59.116
209.141.60.221
209.141.62.71
209.148.46.45
209.205.191.129
209.209.10.208
209.209.11.184
209.237.82.207
209.250.2.254
210.139.3.165
212.5.143.165
212.7.160.189
212.15.155.157
212.16.170.158
212.21.66.6
212.21.66.25
212.24.100.138
212.25.16.159
212.32.240.165
212.38.189.186
212.41.17.53
212.44.107.82
212.47.229.2
212.47.233.86
212.51.134.25
212.51.153.6
212.51.155.104
212.52.0.244
212.60.126.148
212.69.167.80
212.73.134.204
212.73.134.242
212.83.61.218
212.83.167.220
212.83.171.89
212.85.84.17
212.86.32.106
212.89.225.242
212.95.50.77
212.95.51.98
212.95.52.76
212.111.40.177
212.114.16.232
212.129.4.84
212.129.32.142
212.129.62.232
212.132.73.151
212.132.78.65
212.132.78.171
212.132.79.65
212.132.105.32
212.132.110.104
212.132.124.43
212.132.124.245
212.132.126.168
212.144.96.29
212.146.101.18
212.159.69.155
212.159.177.198
212.162.9.158
212.162.152.105
212.162.153.159
212.193.3.59
212.193.3.237
212.227.8.137
212.227.43.225
212.227.74.176
212.227.76.37
212.227.76.91
212.227.78.103
212.227.119.130
212.227.148.248
212.227.149.79
212.227.150.117
212.227.165.251
212.227.169.190
212.227.171.107
212.227.197.40
212.227.198.49
212.227.201.187
212.227.224.217
212.227.224.245
212.227.225.216
212.227.226.200
212.227.228.245
212.227.234.153
212.227.237.231
212.227.240.17
212.233.49.210
212.237.217.108
213.32.104.213
213.34.104.54
213.47.154.149
213.52.128.167
213.95.149.22
213.95.190.181
213.108.108.85
213.109.161.242
213.109.162.197
213.109.192.61
213.109.192.99
213.113.1.191
213.128.141.195
213.133.103.134
213.135.244.242
213.136.81.89
213.138.109.86
213.138.109.144
213.139.243.22
213.144.135.21
213.144.135.22
213.144.136.68
213.144.142.24
213.144.142.26
213.152.162.181
213.152.187.205
213.156.142.30
213.163.70.234
213.164.193.245
213.164.201.212
213.167.242.183
213.168.190.69
213.169.148.151
213.171.194.25
213.171.214.222
213.183.48.84
213.183.56.140
213.183.63.36
213.183.63.169
213.202.208.174
213.202.216.179
213.202.219.251
213.202.223.75
213.206.184.75
213.211.43.139
213.227.133.129
213.227.151.21
213.239.213.220
213.239.215.221
213.252.140.118
213.252.245.153
213.252.245.202
213.255.218.86
216.73.159.75
216.73.159.101
216.73.159.106
216.146.27.106
216.197.207.48
216.205.161.171
216.218.219.41
216.239.90.19
216.246.103.120
216.250.247.164
216.250.247.165
217.12.203.196
217.12.203.242
217.12.206.128
217.12.215.167
217.12.221.75
217.12.221.110
217.12.221.131
217.15.165.190
217.23.8.2
217.28.62.164
217.70.191.83
217.76.139.49
217.76.159.216
217.79.179.177
217.79.181.76
217.79.181.90
217.79.252.202
217.82.98.124
217.83.160.153
217.85.162.87
217.92.175.88
217.95.17.124
217.103.30.38
217.112.131.24
217.115.127.34
217.117.29.93
217.146.2.41
217.146.2.101
217.150.233.190
217.155.3.245
217.155.40.118
217.160.9.229
217.160.13.173
217.160.49.94
217.160.49.126
217.160.57.194
217.160.59.94
217.160.98.239
217.160.114.94
217.160.114.102
217.160.114.209
217.160.192.232
217.160.216.38
217.160.220.18
217.160.242.229
217.160.247.34
217.160.250.166
217.160.251.63
217.160.255.113
217.163.129.42
217.170.201.71
217.172.180.4
217.180.225.55
217.182.73.157
217.182.75.0
217.194.154.18
217.196.147.77
217.197.162.19
217.199.199.250
217.210.99.69
217.228.162.78
217.251.218.233
217.255.91.100
217.255.207.75
218.144.130.245
218.146.121.61
220.71.7.106
220.85.171.118
220.233.73.236
220.235.56.227
221.113.50.91
221.145.183.106
221.150.33.55
223.25.71.54